\contentsline {section}{Purpose of this Document}{1}
\contentsline {section}{\numberline {1}Description}{2}
\contentsline {section}{\numberline {2}Governing Documents}{2}
\contentsline {section}{\numberline {3}Documentation}{2}
\contentsline {section}{\numberline {4}Source Code and Installation}{2}
\contentsline {section}{\numberline {5}Regression Tests}{2}
\contentsline {subsection}{\numberline {5.1}Data Sets}{2}
\contentsline {subsection}{\numberline {5.2}Evaluation Criteria}{2}
