\relax 
\@writefile{toc}{\contentsline {section}{Purpose of this Document}{1}}
\@writefile{toc}{\contentsline {section}{\numberline {1}Description}{2}}
\@writefile{toc}{\contentsline {section}{\numberline {2}Governing Documents}{2}}
\@writefile{toc}{\contentsline {section}{\numberline {3}Documentation}{2}}
\@writefile{toc}{\contentsline {section}{\numberline {4}Source Code and Installation}{2}}
\@writefile{toc}{\contentsline {section}{\numberline {5}Regression Tests}{2}}
\@writefile{toc}{\contentsline {subsection}{\numberline {5.1}Data Sets}{2}}
\@writefile{toc}{\contentsline {subsection}{\numberline {5.2}Evaluation Criteria}{2}}
\bibdata{PLSeries}
\bibstyle{abbrv}
