\relax 
\newlabel{P4.21}{{}{1}}
\@writefile{toc}{\contentsline {section}{\numberline {1.}Introduction}{1}}
\@writefile{toc}{\contentsline {section}{\numberline {2.}Photometric Uniformity}{2}}
\@writefile{toc}{\contentsline {section}{\numberline {3.}Astrometric Calibration}{2}}
\@writefile{toc}{\contentsline {section}{\numberline {4.}Data Quality Characterization}{3}}
\@writefile{toc}{\contentsline {section}{\numberline {5.}Data Products}{3}}
