\relax 
\@writefile{toc}{\contentsline {section}{\numberline {1}Introduction}{2}}
\@writefile{toc}{\contentsline {section}{\numberline {2}Photometric Uniformity}{2}}
\@writefile{toc}{\contentsline {section}{\numberline {3}Astrometric Calibration}{3}}
\@writefile{toc}{\contentsline {section}{\numberline {4}Data Quality Characterization}{3}}
\@writefile{toc}{\contentsline {section}{\numberline {5}Data Products}{4}}
\bibcite{Cline}{{1}{}{{}}{{}}}
\bibcite{Monet}{{2}{}{{}}{{}}}
\bibcite{Smith}{{3}{}{{}}{{}}}
\bibcite{Swaters}{{4}{}{{}}{{}}}
\global\NAT@numberstrue
