\contentsline {section}{\numberline {1}Introduction}{2}
\contentsline {section}{\numberline {2}Photometric Uniformity}{2}
\contentsline {section}{\numberline {3}Astrometric Calibration}{3}
\contentsline {section}{\numberline {4}Data Quality Characterization}{3}
\contentsline {section}{\numberline {5}Data Products}{4}
