\relax 
\@writefile{toc}{\contentsline {section}{Abstract}{1}}
\@writefile{toc}{\contentsline {section}{Purpose of this Document}{2}}
\@writefile{toc}{\contentsline {section}{\numberline {1}Introduction}{3}}
\@writefile{toc}{\contentsline {section}{\numberline {2}The Demonstration Use Case}{4}}
\newlabel{DemonstrationData}{{3}{4}}
\@writefile{toc}{\contentsline {section}{\numberline {3}The ODI Demonstration Data }{4}}
\@writefile{toc}{\contentsline {section}{\numberline {4}The Demonstration Pipeline}{5}}
\@writefile{toc}{\contentsline {subsection}{\numberline {4.1}The Science Processing Modules}{6}}
\@writefile{toc}{\contentsline {subsection}{\numberline {4.2}The NHPPS Pipelines}{7}}
\@writefile{toc}{\contentsline {subsection}{\numberline {4.3}The OGCE Pipeline Services}{8}}
\@writefile{toc}{\contentsline {section}{\numberline {5}The Demonstration Results}{8}}
\@writefile{lof}{\contentsline {figure}{\numberline {1}{\ignorespaces NHPPS pipeline tree. The connections between pipelines are one-to-many which includes one-to-one. }}{9}}
\newlabel{fig:nhpps}{{1}{9}}
\@writefile{lof}{\contentsline {figure}{\numberline {2}{\ignorespaces OGCE pipeline DAG. The NHPPS dit pipeline is broken in two and the OGCE foreach and merge components provide the distributed parallelization and merging. }}{9}}
\newlabel{fig:ogce}{{2}{9}}
\@writefile{lof}{\contentsline {figure}{\numberline {3}{\ignorespaces Graphical representation of wrapped NHPPS pipelines to stack ODI dithered images, orchestrated and execution is monitored in OGCE XBaya. }}{10}}
\newlabel{fig:xbaya}{{3}{10}}
\bibdata{PLSeries}
\bibstyle{abbrv}
\newlabel{FigureAppendix}{{A}{11}}
\@writefile{toc}{\contentsline {section}{\numberline {A}Figures }{11}}
\@writefile{lof}{\contentsline {figure}{\numberline {4}{\ignorespaces OTA cell (624x608 pixels) showing data and overscan regions. }}{11}}
\newlabel{cell.eps}{{4}{11}}
\@writefile{lof}{\contentsline {figure}{\numberline {5}{\ignorespaces A single OTA (4846x4854 pixels) from a single raw bias exposure. The overscan regions are not shown but the differing bias levels are reflected in the cell levels. A calibrated bias would appear as pure noise around a uniform level near zero. }}{12}}
\newlabel{zero00.eps}{{5}{12}}
\@writefile{lof}{\contentsline {figure}{\numberline {6}{\ignorespaces A single OTA (4846x4854 pixels) from a master flat field calibration. The variations between the cells are due to sensitivity differences in the amplifiers for each cell. The amplitude of these differences is such that the grayscale stretch does not show the pixel noise. A raw flat field exposure would not appear different because the overscan and bias levels would also be lost in the grayscale rendering. }}{13}}
\newlabel{Flat00.eps}{{6}{13}}
\@writefile{lof}{\contentsline {figure}{\numberline {7}{\ignorespaces Four OTAs (9692x9708 pixels) from a raw science exposure. The principle variations between cells are due to the sensitivity differences which are calibrated by flat fielding. }}{14}}
\newlabel{quadrawA.eps}{{7}{14}}
\@writefile{lof}{\contentsline {figure}{\numberline {8}{\ignorespaces Four OTAs (9692x9708 pixels) from a calibrated science exposure. The calibrations include overscan and zero bias subtraction and flat field normalization. }}{15}}
\newlabel{quadcalA.eps}{{8}{15}}
\@writefile{lof}{\contentsline {figure}{\numberline {9}{\ignorespaces A dither stack (9922x9938 pixels) using just four OTAs from two calibrated science exposures. A full ODI field would be sixteen times bigger. The rectangular dark regions are places where a two exposure dither is insufficient. Dither sets typically have four or more exposures to fill in the entire field except at the edges. The grayscale stretch is the same as in figure\nobreakspace  {}8\hbox {} for comparison. }}{16}}
\newlabel{stack.eps}{{9}{16}}
