\contentsline {section}{Purpose of this Document}{2}
\contentsline {section}{\numberline {1}Introduction }{3}
\contentsline {section}{\numberline {2}Wrapping an NHPPS Pipeline as a Grid Service }{4}
\contentsline {section}{\numberline {3}Pipelines vs. Module}{4}
\contentsline {section}{\numberline {4}The Advantages}{5}
\contentsline {section}{\numberline {5}The Disadvantages}{5}
\contentsline {section}{\numberline {6}Conclusion}{6}
\contentsline {section}{\numberline {7}Status}{6}
