\relax 
\@writefile{toc}{\contentsline {section}{Purpose of this Document}{2}}
\newlabel{introduction}{{1}{3}}
\@writefile{toc}{\contentsline {section}{\numberline {1}Introduction }{3}}
\newlabel{wrapping-an-nhpps-pipeline-as-a-grid-service}{{2}{4}}
\@writefile{toc}{\contentsline {section}{\numberline {2}Wrapping an NHPPS Pipeline as a Grid Service }{4}}
\newlabel{piplines-vs-modules}{{3}{4}}
\@writefile{toc}{\contentsline {section}{\numberline {3}Pipelines vs. Module}{4}}
\newlabel{the-advantages}{{4}{5}}
\@writefile{toc}{\contentsline {section}{\numberline {4}The Advantages}{5}}
\newlabel{the-disadvantages}{{5}{5}}
\@writefile{toc}{\contentsline {section}{\numberline {5}The Disadvantages}{5}}
\newlabel{conclusion}{{6}{6}}
\@writefile{toc}{\contentsline {section}{\numberline {6}Conclusion}{6}}
\newlabel{status}{{7}{6}}
\@writefile{toc}{\contentsline {section}{\numberline {7}Status}{6}}
\bibdata{PLSeries}
\bibstyle{abbrv}
