\relax 
\citation{NHPPS}
\citation{MosaicProtocol}
\newlabel{sec:intro}{{1}{2}}
\@writefile{toc}{\contentsline {section}{\numberline {1}Introduction}{2}}
\newlabel{sec:opsmodel}{{2}{2}}
\@writefile{toc}{\contentsline {section}{\numberline {2}Science Pipeline Operations Model}{2}}
\newlabel{sec:datasets}{{3}{3}}
\@writefile{toc}{\contentsline {section}{\numberline {3}Pipeline Datasets}{3}}
\newlabel{sec:PSS}{{4}{3}}
\@writefile{toc}{\contentsline {section}{\numberline {4}Pipeline Scheduling System}{3}}
\newlabel{sec:PSQDB}{{4.1}{4}}
\@writefile{toc}{\contentsline {subsection}{\numberline {4.1}Pipeline Scheduling Queue Database}{4}}
\newlabel{sec:PSA}{{4.2}{4}}
\@writefile{toc}{\contentsline {subsection}{\numberline {4.2}Pipeline Scheduling Agent}{4}}
\@writefile{lof}{\contentsline {figure}{\numberline {1}{\ignorespaces PSQDB queues table: PSQ.}}{5}}
\newlabel{fig:PSQtable}{{1}{5}}
\@writefile{lof}{\contentsline {figure}{\numberline {2}{\ignorespaces PSQDB dataset table: e.g. C4M07B.}}{5}}
\newlabel{fig:Qtable}{{2}{5}}
\newlabel{sec:psqdbtools1}{{4.3}{5}}
\@writefile{toc}{\contentsline {subsection}{\numberline {4.3}Populating the PSQDB}{5}}
\@writefile{lof}{\contentsline {figure}{\numberline {3}{\ignorespaces PSQDB data table: e.g. C4M07BD.}}{6}}
\newlabel{fig:QDtable}{{3}{6}}
\@writefile{lof}{\contentsline {figure}{\numberline {4}{\ignorespaces Example PSA log output.}}{6}}
\newlabel{fig:PSAlog}{{4}{6}}
\newlabel{sec:psqdbtools2}{{4.4}{7}}
\@writefile{toc}{\contentsline {subsection}{\numberline {4.4}Managing the PSQDB}{7}}
\newlabel{sec:psausage}{{4.5}{7}}
\@writefile{toc}{\contentsline {subsection}{\numberline {4.5}Operations with the PSA/PSQDB}{7}}
\@writefile{toc}{\contentsline {subsubsection}{\numberline {4.5.1}Submitting datasets}{7}}
\@writefile{toc}{\contentsline {subsubsection}{\numberline {4.5.2}Completing a dataset}{8}}
\citation{NHPPS}
\newlabel{sec:parameters}{{5}{9}}
\@writefile{toc}{\contentsline {section}{\numberline {5}Pipeline Parameters}{9}}
\newlabel{sec:CalDB}{{6}{9}}
\@writefile{toc}{\contentsline {section}{\numberline {6}Pipeline Data Manager and Calibration Library}{9}}
\newlabel{sec:DMaSS}{{7}{10}}
\@writefile{toc}{\contentsline {section}{\numberline {7}Data Management and Science Support}{10}}
\bibcite{MosaicProtocol}{{1}{2006}{{Dickinson et al.}}{{}}}
\bibcite{NHPPS}{{2}{2007}{{Valdes et al.}}{{}}}
\newlabel{sec:FTP}{{8}{11}}
\@writefile{toc}{\contentsline {section}{\numberline {8}Pipeline FTP Distribution}{11}}
