\begin{thebibliography}{}
\expandafter\ifx\csname natexlab\endcsname\relax\def\natexlab#1{#1}\fi
\expandafter\ifx\csname url\endcsname\relax
  \def\url#1{\texttt{#1}}\fi
\expandafter\ifx\csname urlprefix\endcsname\relax\def\urlprefix{URL }\fi
\providecommand{\eprint}[2][]{\url{#2}}

\bibitem[{Catlett(2005)}]{teragrid}
Catlett, C. 2005, in Cluster Computing and the Grid, 2002. 2nd IEEE/ACM
  International Symposium on (IEEE), 8

\bibitem[{Pierce et~al.(2009)Pierce, Marru, Wu, Kandaswamy, Laszewski, Dooley,
  Dahan, Wilkins-Dier, \& Thomas}]{OGCE}
Pierce, M., Marru, S., Wu, W., Kandaswamy, G., Laszewski, G., Dooley, R.,
  Dahan, M., Wilkins-Dier, N., \& Thomas, M. 2009, Open Grid Computing
  Environments (TeraGrid 2009)

\bibitem[{Valdes(2009)}]{PL013}
Valdes, F. 2009, {ODI Pipeline Data Flow Design}, SDM Pipeline Document PL013,
  NOAO/SDM. {http://chive.tuc.noao.edu/noaodpp/Pipeline/PL013.pdf}

\bibitem[{Valdes et~al.(2006)Valdes, Cline, Pierfederici, Thomas, Miller, \&
  Swaters}]{PL001}
Valdes, F., Cline, T., Pierfederici, F., Thomas, B., Miller, M., \& Swaters, R.
  2006, {The NOAO High-Performance Pipeline System}, SDM Pipeline Document
  PL001, NOAO/SDM. {http://chive.tuc.noao.edu/noaodpp/Pipeline/PL001.pdf}

\end{thebibliography}
