\relax 
\@writefile{toc}{\contentsline {section}{\numberline {1}Introduction}{2}}
\@writefile{toc}{\contentsline {section}{\numberline {2}NOAO High Performance Pipeline System (NHPPS)}{2}}
\@writefile{toc}{\contentsline {section}{\numberline {3}Open Grid Computing Environment (OGCE)}{3}}
\@writefile{toc}{\contentsline {section}{\numberline {4}The Marriage}{3}}
\@writefile{toc}{\contentsline {section}{\numberline {5}Conclusion}{4}}
\bibdata{PLSeries}
\bibstyle{abbrv}
