\contentsline {section}{\numberline {1}Overview}{1}
\contentsline {section}{\numberline {2}NHPPSAPP: The Host Wrapper Layer }{2}
\contentsline {section}{\numberline {3}NHPPS: The Node Orchestration Layer }{2}
\contentsline {section}{\numberline {4}The Computation Scripting Module Layer }{3}
\contentsline {section}{\numberline {5}The Core Toolkit Layer }{4}
