\relax 
\citation{2011ASPC..442..211V}
\citation{CDR-09}
\citation{PL019}
\citation{PL013}
\citation{CDR-18}
\@writefile{toc}{\contentsline {section}{\numberline {1}Overview}{1}}
\@writefile{lof}{\contentsline {figure}{\numberline {1}{\ignorespaces AuCaP Onion Layer Diagram }}{1}}
\newlabel{fig:onion}{{1}{1}}
\citation{PL001}
\newlabel{nhppsapp}{{2}{2}}
\@writefile{toc}{\contentsline {section}{\numberline {2}NHPPSAPP: The Host Wrapper Layer }{2}}
\newlabel{nhpps}{{3}{2}}
\@writefile{toc}{\contentsline {section}{\numberline {3}NHPPS: The Node Orchestration Layer }{2}}
\citation{PL021}
\newlabel{modules}{{4}{3}}
\@writefile{toc}{\contentsline {section}{\numberline {4}The Computation Scripting Module Layer }{3}}
\newlabel{toolkit}{{5}{4}}
\@writefile{toc}{\contentsline {section}{\numberline {5}The Core Toolkit Layer }{4}}
\bibdata{PLSeries,CDR}
\bibcite{CDR-09}{{1}{}{{}}{{}}}
\bibcite{CDR-18}{{2}{}{{}}{{}}}
\bibcite{PL019}{{3}{}{{}}{{}}}
\bibcite{PL001}{{4}{}{{}}{{}}}
\bibcite{PL021}{{5}{}{{}}{{}}}
\bibcite{2011ASPC..442..211V}{{6}{}{{}}{{}}}
\bibcite{PL013}{{7}{}{{}}{{}}}
\bibstyle{abbrv}
\providecommand\NAT@force@numbers{}\NAT@force@numbers
