\contentsline {section}{\numberline {1}Data-Handling System}{2}
\contentsline {section}{\numberline {2}Keyword Translation Module}{2}
\contentsline {section}{\numberline {3}Post Processing}{3}
\contentsline {section}{\numberline {4}Focus Routine}{3}
\contentsline {section}{\numberline {5}Quick-Reduce Pipeline}{4}
\contentsline {subsection}{\numberline {5.1}Pipeline Data Products}{6}
\contentsline {subsection}{\numberline {5.2}Pipeline User Tools}{6}
