\relax 
\citation{Daly}
\citation{MDHS}
\@writefile{toc}{\contentsline {section}{\numberline {1}Data-Handling System}{2}}
\@writefile{toc}{\contentsline {section}{\numberline {2}Keyword Translation Module}{2}}
\@writefile{toc}{\contentsline {section}{\numberline {3}Post Processing}{3}}
\@writefile{toc}{\contentsline {section}{\numberline {4}Focus Routine}{3}}
\citation{PL001}
\@writefile{toc}{\contentsline {section}{\numberline {5}Quick-Reduce Pipeline}{4}}
\bibcite{Daly}{{1}{2008}{{Daly}}{{}}}
\bibcite{PL001}{{2}{2006}{{Valdes}}{{}}}
\@writefile{toc}{\contentsline {subsection}{\numberline {5.1}Pipeline Data Products}{6}}
\@writefile{toc}{\contentsline {subsection}{\numberline {5.2}Pipeline User Tools}{6}}
\bibcite{MDHS}{{3}{1998}{{Valdes \& Tody}}{{}}}
