This is BibTeX, Version 0.99c (TeX Live 2009)
The top-level auxiliary file: PL103.aux
A level-1 auxiliary file: VOTables/votable1.aux
A level-1 auxiliary file: VOTables/votable2.aux
A level-1 auxiliary file: VOTables/votable3.aux
A level-1 auxiliary file: VOTables/votable4.aux
A level-1 auxiliary file: VOTables/votable5.aux
The style file: abbrv.bst
Database file #1: PL103.bib
Database file #2: PLSeries.bib
You've used 1 entry,
            2118 wiz_defined-function locations,
            512 strings with 4025 characters,
and the built_in function-call counts, 269 in all, are:
= -- 26
> -- 13
< -- 1
+ -- 5
- -- 4
* -- 17
:= -- 57
add.period$ -- 4
call.type$ -- 1
change.case$ -- 5
chr.to.int$ -- 0
cite$ -- 1
duplicate$ -- 9
empty$ -- 16
format.name$ -- 4
if$ -- 50
int.to.chr$ -- 0
int.to.str$ -- 1
missing$ -- 0
newline$ -- 9
num.names$ -- 2
pop$ -- 3
preamble$ -- 1
purify$ -- 4
quote$ -- 0
skip$ -- 6
stack$ -- 0
substring$ -- 5
swap$ -- 1
text.length$ -- 1
text.prefix$ -- 0
top$ -- 0
type$ -- 4
warning$ -- 0
while$ -- 2
width$ -- 2
write$ -- 15
