\begin{thebibliography}{1}

\bibitem{VOTables}
F.~Ochsenbein and R.~Williams.
\newblock {VOTable Format Definition: Version 1.2}.
\newblock IVOA Proposed Recommendation V1.2, IVOA, Nov 2009.
\newblock
  {\\http://www.ivoa.net/internal/IVOA/IvoaVOTable/PR-VOTable-1.2-20091102.pdf%
}.

\end{thebibliography}
