\relax 
\@writefile{toc}{\contentsline {section}{Purpose of this Document}{2}}
\@writefile{toc}{\contentsline {section}{\numberline {1}Introduction}{3}}
\@writefile{toc}{\contentsline {section}{\numberline {2}Concept of Operation}{3}}
\@writefile{lot}{\contentsline {table}{\numberline {1}{\ignorespaces Catalog Fields}}{4}}
\@writefile{toc}{\contentsline {section}{\numberline {3}Selection of the Best Calibration}{4}}
\@writefile{toc}{\contentsline {section}{\numberline {4}The Catalog}{4}}
\@writefile{lot}{\contentsline {table}{\numberline {2}{\ignorespaces DATATYPE Values}}{5}}
\newlabel{DataTransport}{{4}{5}}
\@writefile{toc}{\contentsline {section}{\numberline {5}File Repository}{5}}
\@writefile{lot}{\contentsline {table}{\numberline {3}{\ignorespaces Table of Classes}}{6}}
\@writefile{toc}{\contentsline {section}{\numberline {6}Data Transport}{7}}
\@writefile{toc}{\contentsline {section}{\numberline {7}Protocol}{7}}
\@writefile{lot}{\contentsline {table}{\numberline {4}{\ignorespaces Arguments to get a calibration.}}{8}}
\@writefile{toc}{\contentsline {section}{\numberline {8}Request for a Calibration}{8}}
\@writefile{toc}{\contentsline {subsection}{\numberline {8.1}The Request Options}{8}}
\@writefile{toc}{\contentsline {subsection}{\numberline {8.2}Calibration Selection}{8}}
\@writefile{lof}{\contentsline {figure}{\numberline {1}{\ignorespaces Schematic query to select a calibration.}}{9}}
\@writefile{toc}{\contentsline {subsection}{\numberline {8.3}The Return from a Calibration Request}{9}}
\@writefile{lot}{\contentsline {table}{\numberline {5}{\ignorespaces Return values from a regquest for a calibration}}{10}}
\@writefile{lot}{\contentsline {table}{\numberline {6}{\ignorespaces Parameters for Entering a Calibration}}{10}}
\newlabel{tbl:putcal}{{6}{10}}
\@writefile{toc}{\contentsline {section}{\numberline {9}Entering a Calibration}{10}}
\@writefile{lof}{\contentsline {figure}{\numberline {2}{\ignorespaces GETCAL and PUTCAL parameters.}}{11}}
\@writefile{toc}{\contentsline {section}{\numberline {10}The Pipeline Interface Commands}{11}}
\@writefile{toc}{\contentsline {subsection}{\numberline {10.1}getcal}{11}}
\@writefile{toc}{\contentsline {subsection}{\numberline {10.2}putcal}{12}}
\@writefile{toc}{\contentsline {section}{\numberline {11}The Software}{12}}
\@writefile{toc}{\contentsline {section}{\numberline {12}Auxillary Tools}{13}}
\@writefile{toc}{\contentsline {section}{\numberline {13}Server-less Pipeline Situations}{13}}
\bibdata{PLSeries}
\bibstyle{abbrv}
