\contentsline {table}{\numberline {1}{\ignorespaces AuCaP Data Products}}{2}
\contentsline {table}{\numberline {2}{\ignorespaces Calibration and Charaterization Keywords}}{4}
\contentsline {table}{\numberline {3}{\ignorespaces Provenance Keywords}}{5}
\contentsline {table}{\numberline {4}{\ignorespaces Association Keywords}}{5}
