\relax 
\@writefile{toc}{\contentsline {section}{\numberline {1}Introduction}{1}}
\@writefile{toc}{\contentsline {section}{\numberline {2}Pipeline Management System}{1}}
\@writefile{toc}{\contentsline {subsection}{\numberline {2.1}Pipeline Description Language}{2}}
\@writefile{toc}{\contentsline {subsubsection}{\numberline {2.1.1}Actions}{2}}
\@writefile{toc}{\contentsline {subsubsection}{\numberline {2.1.2}Events}{2}}
\@writefile{toc}{\contentsline {subsection}{\numberline {2.2}Pipeline Manager}{3}}
\@writefile{toc}{\contentsline {subsubsection}{\numberline {2.2.1}Module Manager}{3}}
\@writefile{toc}{\contentsline {subsubsection}{\numberline {2.2.2}Blackboards}{3}}
\bibcite{pierfederici}{{1}{2005}{{Pierfederici, F. }}{{}}}
\bibcite{rose}{{2}{1995}{{Rose, J., et al. }}{{}}}
\bibcite{scott}{{3}{2006}{{Scott, D., et al. }}{{}}}
\bibcite{swaters}{{4}{2006}{{Swaters, R. and Valdes, F. }}{{}}}
\bibcite{valdes}{{5}{2006}{{Valdes, F and Swaters, R }}{{}}}
\@writefile{toc}{\contentsline {section}{\numberline {3}Services}{4}}
\@writefile{toc}{\contentsline {subsection}{\numberline {3.1}Node Manager}{4}}
\@writefile{toc}{\contentsline {subsection}{\numberline {3.2}Directory Server}{4}}
\@writefile{toc}{\contentsline {subsection}{\numberline {3.3}Pipeline Selection Utility}{4}}
