\relax 
\citation{PL016}
\citation{PL016}
\@writefile{toc}{\contentsline {section}{Introduction}{2}}
\@writefile{toc}{\contentsline {section}{Data Quality Categories}{2}}
\@writefile{lot}{\contentsline {table}{\numberline {1}{\ignorespaces Data Quality Categories: Unsuitable for Science}}{3}}
\newlabel{tbl:categories1}{{1}{3}}
\@writefile{lot}{\contentsline {table}{\numberline {2}{\ignorespaces Data Quality Categories: Adisory and Classification}}{4}}
\newlabel{tbl:categories2}{{2}{4}}
\@writefile{toc}{\contentsline {section}{Mosaic Cameras, Resampling, and Stacking}{5}}
\newlabel{bad}{{1}{6}}
\@writefile{toc}{\contentsline {section}{\numberline {1}Unsuitable for Science }{6}}
\newlabel{bad.det}{{1.1}{6}}
\@writefile{toc}{\contentsline {subsection}{\numberline {1.1}Detector }{6}}
\newlabel{bad.det.pixel}{{1.1.1}{6}}
\@writefile{toc}{\contentsline {subsubsection}{\numberline {1.1.1}bad pixels }{6}}
\newlabel{bad.det.sat}{{1.1.2}{6}}
\@writefile{toc}{\contentsline {subsubsection}{\numberline {1.1.2}saturation }{6}}
\newlabel{bad.det.bloom}{{1.1.3}{6}}
\@writefile{toc}{\contentsline {subsubsection}{\numberline {1.1.3}pixels affected by saturation }{6}}
\newlabel{bad.det.persist}{{1.1.4}{6}}
\@writefile{toc}{\contentsline {subsubsection}{\numberline {1.1.4}persistence }{6}}
\newlabel{bad.det.cr}{{1.1.5}{7}}
\@writefile{toc}{\contentsline {subsubsection}{\numberline {1.1.5}non-photon events }{7}}
\newlabel{bad.electronics}{{1.2}{7}}
\@writefile{toc}{\contentsline {subsection}{\numberline {1.2}Electronics }{7}}
\newlabel{bad.electronic.noise}{{1.2.1}{7}}
\@writefile{toc}{\contentsline {subsubsection}{\numberline {1.2.1}noise }{7}}
\newlabel{bad.electronic.dropout}{{1.2.2}{7}}
\@writefile{toc}{\contentsline {subsubsection}{\numberline {1.2.2}dropouts }{7}}
\newlabel{bad.electronic.telemetry}{{1.2.3}{7}}
\@writefile{toc}{\contentsline {subsubsection}{\numberline {1.2.3}telemetry }{7}}
\newlabel{bad.electronic.edge}{{1.2.4}{8}}
\@writefile{toc}{\contentsline {subsubsection}{\numberline {1.2.4}edge effects }{8}}
\newlabel{bad.electronic.xtalk}{{1.2.5}{8}}
\@writefile{toc}{\contentsline {subsubsection}{\numberline {1.2.5}crosstalk }{8}}
\newlabel{bad.cal}{{1.3}{8}}
\@writefile{toc}{\contentsline {subsection}{\numberline {1.3}Calibration }{8}}
\newlabel{bad.cal.uncal}{{1.3.1}{8}}
\@writefile{toc}{\contentsline {subsubsection}{\numberline {1.3.1}uncalibratable }{8}}
\newlabel{bad.cal.data}{{1.3.2}{9}}
\@writefile{toc}{\contentsline {subsubsection}{\numberline {1.3.2}bad calibration data }{9}}
\newlabel{bad.cal.nodata}{{1.3.3}{9}}
\@writefile{toc}{\contentsline {subsubsection}{\numberline {1.3.3}no data }{9}}
\newlabel{bad.cal.nonscience}{{1.3.4}{9}}
\@writefile{toc}{\contentsline {subsubsection}{\numberline {1.3.4}non-science }{9}}
\newlabel{advisory}{{2}{9}}
\@writefile{toc}{\contentsline {section}{\numberline {2}Advisory }{9}}
\newlabel{advisory.uncertain}{{2.1}{9}}
\@writefile{toc}{\contentsline {subsection}{\numberline {2.1}Poor or Uncertain Calibration }{9}}
\newlabel{advisory.uncertain.bias}{{2.1.1}{10}}
\@writefile{toc}{\contentsline {subsubsection}{\numberline {2.1.1}bias }{10}}
\newlabel{advisory.uncertain.linearity}{{2.1.2}{10}}
\@writefile{toc}{\contentsline {subsubsection}{\numberline {2.1.2}linearity }{10}}
\newlabel{advisory.uncertain.replace}{{2.1.3}{10}}
\@writefile{toc}{\contentsline {subsubsection}{\numberline {2.1.3}replacement }{10}}
\newlabel{advisory.model}{{2.2}{11}}
\@writefile{toc}{\contentsline {subsection}{\numberline {2.2}Model Subtraction }{11}}
\newlabel{advisory.model.xtalk}{{2.2.1}{11}}
\@writefile{toc}{\contentsline {subsubsection}{\numberline {2.2.1}crosstalk }{11}}
\newlabel{advisory.model.persist}{{2.2.2}{11}}
\@writefile{toc}{\contentsline {subsubsection}{\numberline {2.2.2}persistence }{11}}
\newlabel{advisory.model.reflect}{{2.2.3}{11}}
\@writefile{toc}{\contentsline {subsubsection}{\numberline {2.2.3}reflection }{11}}
\newlabel{advisory.model.psf}{{2.2.4}{11}}
\@writefile{toc}{\contentsline {subsubsection}{\numberline {2.2.4}psf }{11}}
\newlabel{advisory.model.model}{{2.2.5}{12}}
\@writefile{toc}{\contentsline {subsubsection}{\numberline {2.2.5}model }{12}}
\newlabel{advisory.stack}{{2.3}{12}}
\@writefile{toc}{\contentsline {subsection}{\numberline {2.3}Stacking }{12}}
\newlabel{advisory.stack.dqrej}{{2.3.1}{12}}
\@writefile{toc}{\contentsline {subsubsection}{\numberline {2.3.1}pixels rejected by data quality }{12}}
\newlabel{advisory.stack.statrej}{{2.3.2}{12}}
\@writefile{toc}{\contentsline {subsubsection}{\numberline {2.3.2}pixels rejected by statistical clipping }{12}}
\newlabel{class}{{3}{13}}
\@writefile{toc}{\contentsline {section}{\numberline {3}Classification }{13}}
\newlabel{class.false}{{3.1}{13}}
\@writefile{toc}{\contentsline {subsection}{\numberline {3.1}False (Ghost) Sources }{13}}
\newlabel{class.false.det}{{3.1.1}{13}}
\@writefile{toc}{\contentsline {subsubsection}{\numberline {3.1.1}detector/electronic }{13}}
\newlabel{class.false.instrument}{{3.1.2}{13}}
\@writefile{toc}{\contentsline {subsubsection}{\numberline {3.1.2}Instrument reflections }{13}}
\newlabel{class.false.telescope}{{3.1.3}{13}}
\@writefile{toc}{\contentsline {subsubsection}{\numberline {3.1.3}Telescope/dome reflection (e.g. stray light, scattering) }{13}}
\newlabel{class.source}{{3.2}{13}}
\@writefile{toc}{\contentsline {subsection}{\numberline {3.2}Sources }{13}}
\newlabel{class.source.source}{{3.2.1}{14}}
\@writefile{toc}{\contentsline {subsubsection}{\numberline {3.2.1}source }{14}}
\newlabel{class.source.bkg}{{3.2.2}{14}}
\@writefile{toc}{\contentsline {subsubsection}{\numberline {3.2.2}background }{14}}
\newlabel{class.source.stellar}{{3.2.3}{14}}
\@writefile{toc}{\contentsline {subsubsection}{\numberline {3.2.3}stellar }{14}}
\newlabel{class.source.non-stellar}{{3.2.4}{14}}
\@writefile{toc}{\contentsline {subsubsection}{\numberline {3.2.4}non-stellar }{14}}
\newlabel{class.source.transient1}{{3.2.5}{14}}
\@writefile{toc}{\contentsline {subsubsection}{\numberline {3.2.5}transient: single exposure source }{14}}
\newlabel{class.source.transient2}{{3.2.6}{14}}
\@writefile{toc}{\contentsline {subsubsection}{\numberline {3.2.6}transient: variable/burst multiple exposures }{14}}
\newlabel{class.source.streak}{{3.2.7}{14}}
\@writefile{toc}{\contentsline {subsubsection}{\numberline {3.2.7}moving: terrestrial }{14}}
\bibcite{PL016}{{1}{PL016:2008}{{Valdes}}{{}}}
\bibcite{ACS}{{2}{ACS}{{ACS}}{{}}}
\bibcite{NICMOS}{{3}{NICMOS}{{NICMOS}}{{}}}
\bibcite{STIS}{{4}{STIS}{{STIS}}{{}}}
\bibcite{WFPC2}{{5}{WFPC2}{{WFPC2}}{{}}}
\newlabel{class.source.asteroid}{{3.2.8}{15}}
\@writefile{toc}{\contentsline {subsubsection}{\numberline {3.2.8}moving: solar system }{15}}
