\relax 
\@writefile{toc}{\contentsline {section}{\numberline {1}Introduction}{1}}
\@writefile{toc}{\contentsline {section}{\numberline {2}Pixel Calibrations}{1}}
\@writefile{toc}{\contentsline {subsection}{\numberline {2.1}Binned Exposures}{2}}
\@writefile{toc}{\contentsline {section}{\numberline {3}World Coordinate System Calibration}{2}}
\@writefile{toc}{\contentsline {subsection}{\numberline {3.1}Pixel Binning}{3}}
\@writefile{lof}{\contentsline {figure}{\numberline {1}{\ignorespaces Sketch of the local cell guiding. The top boxes represent a set of cells with two independent guiding cells. The dot indicates the position of the first speckle and the random walk the shift history. The shift history is purposely show with the first speckle clearly offset from the ensemble position of the exposure. The bottom panels illustrate the retiling of the OTA cell images into a single OTA image where the sources will be located where they would be in the absence of guiding. }}{4}}
\newlabel{fig:guiding}{{1}{4}}
