\contentsline {section}{\numberline {1}Introduction}{1}
\contentsline {section}{\numberline {2}PSQ Table}{1}
\contentsline {section}{\numberline {3}Dataset Tables}{1}
\contentsline {section}{\numberline {4}Dataset Definition Tables}{1}
