\relax 
\bibcite{PL002}{{PL002}{}{{}}{{}}}
\bibcite{PL004}{{PL004}{}{{}}{{}}}
\global\NAT@numberstrue
\@writefile{toc}{\contentsline {section}{\numberline {1}Introduction}{1}}
\@writefile{toc}{\contentsline {section}{\numberline {2}PSQ Table}{1}}
\@writefile{toc}{\contentsline {section}{\numberline {3}Dataset Tables}{1}}
\@writefile{toc}{\contentsline {section}{\numberline {4}Dataset Definition Tables}{1}}
