\relax 
\citation{PL001}
\citation{PL012}
\citation{PL023}
\citation{2011ASPC..442..211V}
\@writefile{toc}{\contentsline {section}{Purpose of this Document}{2}}
\@writefile{toc}{\contentsline {section}{\numberline {1}Introduction}{2}}
\citation{PL026}
\@writefile{toc}{\contentsline {section}{\numberline {2}PSA and PSQDB}{3}}
\@writefile{toc}{\contentsline {section}{\numberline {3}The NHPPS DECCP Pipeline Application}{3}}
\@writefile{toc}{\contentsline {subsection}{\numberline {3.1}Staging}{4}}
\@writefile{toc}{\contentsline {subsection}{\numberline {3.2}Orchestration}{4}}
\bibdata{PLSeries}
\bibcite{PL026}{{1}{}{{}}{{}}}
\bibcite{PL001}{{2}{}{{}}{{}}}
\bibcite{PL023}{{3}{}{{}}{{}}}
\bibcite{2011ASPC..442..211V}{{4}{}{{}}{{}}}
\bibcite{PL012}{{5}{}{{}}{{}}}
\bibstyle{abbrv}
\providecommand\NAT@force@numbers{}\NAT@force@numbers
\@writefile{toc}{\contentsline {subsection}{\numberline {3.3}Post-DECCP Processing}{5}}
