This is BibTeX, Version 0.99c (Web2C 7.5.5)
The top-level auxiliary file: DEC001.aux
The style file: abbrv.bst
Database file #1: PLSeries.bib
You've used 5 entries,
            2118 wiz_defined-function locations,
            536 strings with 4733 characters,
and the built_in function-call counts, 1642 in all, are:
= -- 158
> -- 93
< -- 6
+ -- 36
- -- 31
* -- 117
:= -- 299
add.period$ -- 20
call.type$ -- 5
change.case$ -- 30
chr.to.int$ -- 0
cite$ -- 5
duplicate$ -- 60
empty$ -- 102
format.name$ -- 31
if$ -- 330
int.to.chr$ -- 0
int.to.str$ -- 5
missing$ -- 1
newline$ -- 33
num.names$ -- 12
pop$ -- 23
preamble$ -- 1
purify$ -- 25
quote$ -- 0
skip$ -- 42
stack$ -- 0
substring$ -- 47
swap$ -- 17
text.length$ -- 6
text.prefix$ -- 0
top$ -- 0
type$ -- 20
warning$ -- 0
while$ -- 13
width$ -- 6
write$ -- 68
