\relax 
\bibcite{REF}{{1}{DATE}{{Author}}{{}}}
\@writefile{toc}{\contentsline {section}{\numberline {1}Introduction}{2}}
\@writefile{toc}{\contentsline {section}{\numberline {2}LSST Data Management Management Structure}{2}}
\@writefile{toc}{\contentsline {section}{\numberline {3}Terminology}{2}}
