\relax 
\citation{PL001}
\citation{PL002}
\citation{PL003}
\@writefile{toc}{\contentsline {section}{\numberline {1}Introduction}{1}}
\@writefile{toc}{\contentsline {section}{\numberline {2}The Role of the Operator}{1}}
\citation{PL006}
\@writefile{toc}{\contentsline {section}{\numberline {3}Basic Operation}{2}}
\newlabel{plstatus}{{3}{2}}
\@writefile{lof}{\contentsline {figure}{\numberline {1}{\ignorespaces The pipeline status: plstatus}}{2}}
\@writefile{toc}{\contentsline {section}{\numberline {4}Pipeline Scheduling Queue (PSQ)}{2}}
\@writefile{toc}{\contentsline {subsection}{\numberline {4.1}Maintaining the PSQ}{3}}
\@writefile{toc}{\contentsline {subsection}{\numberline {4.2}Interacting with the PSQ During Operations}{3}}
\@writefile{toc}{\contentsline {section}{\numberline {5}Pipeline Monitor: {\tt  pipemon}}{3}}
\@writefile{toc}{\contentsline {section}{\numberline {6}The Pipeline Blackboard}{4}}
\@writefile{toc}{\contentsline {section}{\numberline {7}Reviewing Results}{5}}
\@writefile{toc}{\contentsline {section}{\numberline {8}Generating Reports}{5}}
\bibcite{PL001}{{PL001}{}{{}}{{}}}
\bibcite{PL002}{{PL002}{}{{}}{{}}}
\bibcite{PL003}{{PL003}{}{{}}{{}}}
\bibcite{PL006}{{PL006}{}{{}}{{}}}
\global\NAT@numberstrue
\@writefile{toc}{\contentsline {section}{\numberline {9}Glossary of Terms}{6}}
\newlabel{plrun}{{3}{7}}
\@writefile{lof}{\contentsline {figure}{\numberline {2}{\ignorespaces Running the pipeline: plrun}}{7}}
\newlabel{plstop}{{3}{8}}
\@writefile{lof}{\contentsline {figure}{\numberline {3}{\ignorespaces Stopping the pipeline: plstop}}{8}}
\newlabel{psq1}{{4.2}{8}}
\@writefile{lof}{\contentsline {figure}{\numberline {4}{\ignorespaces Pipeline scheduing queue: PSQ table}}{8}}
\newlabel{psq4}{{4.2}{9}}
\@writefile{lof}{\contentsline {figure}{\numberline {5}{\ignorespaces Pipeline scheduing queue interface: K4M table}}{9}}
\newlabel{runpipemon}{{5}{9}}
\@writefile{lof}{\contentsline {figure}{\numberline {6}{\ignorespaces Running the pipeline monitor: pipemon}}{9}}
\newlabel{serversb}{{5}{9}}
\@writefile{lof}{\contentsline {figure}{\numberline {7}{\ignorespaces Starting and stopping the switchboard server: serversb, stopserver}}{9}}
\newlabel{pipemon}{{5}{9}}
\@writefile{lof}{\contentsline {figure}{\numberline {8}{\ignorespaces Example of the pipeline monitor showing processing from the Mosaic Pipeline}}{9}}
\newlabel{dps}{{7}{10}}
\@writefile{lof}{\contentsline {figure}{\numberline {9}{\ignorespaces Example data products review page}}{10}}
\newlabel{mkreportdb}{{8}{11}}
\@writefile{lof}{\contentsline {figure}{\numberline {10}{\ignorespaces Making pipeline reports: mkreportdb, mktxtreport}}{11}}
