\contentsline {section}{\numberline {1}Introduction}{1}
\contentsline {section}{\numberline {2}The Role of the Operator}{1}
\contentsline {section}{\numberline {3}Basic Operation}{2}
\contentsline {section}{\numberline {4}Pipeline Scheduling Queue (PSQ)}{2}
\contentsline {subsection}{\numberline {4.1}Maintaining the PSQ}{3}
\contentsline {subsection}{\numberline {4.2}Interacting with the PSQ During Operations}{3}
\contentsline {section}{\numberline {5}Pipeline Monitor: {\tt pipemon}}{3}
\contentsline {section}{\numberline {6}The Pipeline Blackboard}{4}
\contentsline {section}{\numberline {7}Reviewing Results}{5}
\contentsline {section}{\numberline {8}Generating Reports}{5}
\contentsline {section}{\numberline {9}Glossary of Terms}{6}
