\relax 
\citation{MosaicImager}
\citation{CFH}
\citation{MMT}
\citation{ODI}
\citation{DEC}
\citation{Pan-STARRS}
\citation{LSST}
\@writefile{toc}{\contentsline {section}{\numberline {1}Introduction}{1}}
\citation{OPUS}
\@writefile{toc}{\contentsline {section}{\numberline {2}Pipeline Applications}{2}}
\citation{adass2}
\citation{pasp2}
\@writefile{toc}{\contentsline {section}{\numberline {3}NHPPS Core System}{3}}
\@writefile{lof}{\contentsline {figure}{\numberline {1}{\ignorespaces NHPPS Architecture components.}}{3}}
\newlabel{fig:NHPPSArch}{{1}{3}}
\newlabel{messaging}{{3.1}{4}}
\@writefile{toc}{\contentsline {subsection}{\numberline {3.1}Messaging}{4}}
\@writefile{toc}{\contentsline {subsection}{\numberline {3.2}Directory Server}{4}}
\@writefile{toc}{\contentsline {subsubsection}{\numberline {3.2.1}Externally Callable Methods}{4}}
\@writefile{toc}{\contentsline {subsection}{\numberline {3.3}Node Manager}{4}}
\@writefile{toc}{\contentsline {subsubsection}{\numberline {3.3.1}Externally Callable Methods}{4}}
\citation{OPUS}
\@writefile{toc}{\contentsline {subsection}{\numberline {3.4}Pipeline Manager}{5}}
\@writefile{toc}{\contentsline {subsubsection}{\numberline {3.4.1}Module Manager}{5}}
\@writefile{lof}{\contentsline {figure}{\numberline {2}{\ignorespaces Pseudo-code for a MM generator function.}}{6}}
\newlabel{fig:runcode}{{2}{6}}
\@writefile{toc}{\contentsline {subsubsection}{\numberline {3.4.2}Scheduling}{6}}
\newlabel{blackboards}{{3.4.3}{7}}
\@writefile{toc}{\contentsline {subsubsection}{\numberline {3.4.3}Blackboards}{7}}
\@writefile{toc}{\contentsline {subsection}{\numberline {3.5}Pipeline Selection Utility}{7}}
\@writefile{toc}{\contentsline {subsection}{\numberline {3.6}NHPPS host commands}{7}}
\@writefile{toc}{\contentsline {subsection}{\numberline {3.7}Pipeline Description Language}{8}}
\@writefile{toc}{\contentsline {subsubsection}{\numberline {3.7.1}Settings}{8}}
\@writefile{toc}{\contentsline {subsubsection}{\numberline {3.7.2}Actions}{8}}
\@writefile{toc}{\contentsline {subsubsection}{\numberline {3.7.3}Events}{9}}
\@writefile{toc}{\contentsline {subsubsection}{\numberline {3.7.4}Application Level}{9}}
\@writefile{toc}{\contentsline {subsubsection}{\numberline {3.7.5}Pipeline Level}{9}}
\@writefile{toc}{\contentsline {subsubsection}{\numberline {3.7.6}Module Level}{9}}
\@writefile{toc}{\contentsline {subsection}{\numberline {3.8}Performance}{9}}
\@writefile{toc}{\contentsline {section}{\numberline {4}NHPPS Optional Components}{9}}
\@writefile{toc}{\contentsline {subsection}{\numberline {4.1}Data Manager}{10}}
\@writefile{toc}{\contentsline {subsubsection}{\numberline {4.1.1}Pipeline Metadata Archive System}{10}}
\@writefile{toc}{\contentsline {subsubsection}{\numberline {4.1.2}Calibration Library}{10}}
\citation{pasp2}
\@writefile{toc}{\contentsline {subsubsection}{\numberline {4.1.3}Externally Callable Methods}{11}}
\newlabel{pipemon}{{4.2}{11}}
\@writefile{toc}{\contentsline {subsection}{\numberline {4.2}Pipeline Monitor}{11}}
\newlabel{msgmon}{{4.3}{11}}
\@writefile{toc}{\contentsline {subsection}{\numberline {4.3}Message Monitor}{11}}
\newlabel{serversb}{{4.4}{11}}
\@writefile{toc}{\contentsline {subsection}{\numberline {4.4}Switchboard Server}{11}}
\@writefile{lof}{\contentsline {figure}{\numberline {3}{\ignorespaces Mosaic pipeline cluster status example.}}{12}}
\newlabel{fig:plstatus}{{3}{12}}
\@writefile{lof}{\contentsline {figure}{\numberline {4}{\ignorespaces Example of the pipeline monitor showing processing from the Mosaic Pipeline. The first column is the dataset name (the root name is `A' though in practice there is a more descriptive name), the second column is the pipeline, the third column is the node, and the fourth column are the status flags for each stage. Typically a successfully completed stage is `c' and a successfully completed pipeline ends with `d'. Only pipelines involving the first CCD of the mosaic are shown.}}{12}}
\newlabel{fig:pipemon}{{4}{12}}
\@writefile{toc}{\contentsline {section}{\numberline {5}Implementation}{12}}
\citation{pasp2}
\citation{OPUS}
\bibcite{CFH}{{1}{2003}{{CFH: Boulade}}{{}}}
\bibcite{adass1}{{2}{2007}{{Cline}}{{}}}
\bibcite{ODI}{{3}{2002}{{ODI: Jacoby}}{{}}}
\bibcite{Pan-STARRS}{{4}{2002}{{Pan-STARRS: Kaiser}}{{}}}
\bibcite{MMT}{{5}{2000}{{MMT: McLeod}}{{}}}
\bibcite{MosaicImager}{{6}{1998}{{NOAO: Muller}}{{}}}
\bibcite{OPUS}{{7}{1995}{{Rose}}{{}}}
\bibcite{adass2}{{8}{2007}{{Swaters}}{{}}}
\bibcite{LSST}{{9}{2002}{{LSST: Tyson}}{{}}}
\bibcite{adass3}{{10}{2007a}{{Valdes}}{{}}}
\bibcite{pasp2}{{11}{2007b}{{Valdes}}{{}}}
\bibcite{pasp3}{{12}{2007c}{{Valdes}}{{}}}
\bibcite{DEC}{{13}{2005}{{DEC: Wester}}{{}}}
