\relax 
\citation{MosaicImager}
\citation{CFH}
\citation{MMT}
\citation{ODI}
\citation{DEC}
\citation{Pan-STARRS}
\citation{LSST}
\@writefile{toc}{\contentsline {section}{\numberline {1}Introduction}{2}}
\citation{OPUS}
\citation{adass2}
\citation{pasp2}
\@writefile{toc}{\contentsline {section}{\numberline {2}Pipeline Applications}{3}}
\@writefile{lof}{\contentsline {figure}{\numberline {1}{\ignorespaces NHPPS Architecture components.}}{4}}
\newlabel{fig:NHPPSArch}{{1}{4}}
\@writefile{toc}{\contentsline {section}{\numberline {3}NHPPS Core System}{4}}
\newlabel{messaging}{{3.1}{5}}
\@writefile{toc}{\contentsline {subsection}{\numberline {3.1}Messaging}{5}}
\@writefile{toc}{\contentsline {subsection}{\numberline {3.2}Directory Server}{5}}
\@writefile{toc}{\contentsline {subsubsection}{\numberline {3.2.1}Externally Callable Methods}{6}}
\@writefile{toc}{\contentsline {subsection}{\numberline {3.3}Node Manager}{6}}
\@writefile{toc}{\contentsline {subsubsection}{\numberline {3.3.1}Externally Callable Methods}{6}}
\citation{OPUS}
\@writefile{toc}{\contentsline {subsection}{\numberline {3.4}Pipeline Manager}{7}}
\@writefile{toc}{\contentsline {subsubsection}{\numberline {3.4.1}Module Manager}{7}}
\@writefile{lof}{\contentsline {figure}{\numberline {2}{\ignorespaces Pseudo-code for a MM generator function.}}{9}}
\newlabel{fig:runcode}{{2}{9}}
\@writefile{toc}{\contentsline {subsubsection}{\numberline {3.4.2}Scheduling}{9}}
\newlabel{blackboards}{{3.4.3}{9}}
\@writefile{toc}{\contentsline {subsubsection}{\numberline {3.4.3}Blackboards}{9}}
\@writefile{toc}{\contentsline {subsection}{\numberline {3.5}Pipeline Selection Utility}{10}}
\@writefile{toc}{\contentsline {subsection}{\numberline {3.6}NHPPS host commands}{10}}
\@writefile{toc}{\contentsline {subsection}{\numberline {3.7}Pipeline Description Language}{11}}
\@writefile{toc}{\contentsline {subsubsection}{\numberline {3.7.1}Settings}{11}}
\@writefile{toc}{\contentsline {subsubsection}{\numberline {3.7.2}Actions}{12}}
\@writefile{toc}{\contentsline {subsubsection}{\numberline {3.7.3}Events}{12}}
\@writefile{toc}{\contentsline {subsubsection}{\numberline {3.7.4}Application Level}{13}}
\@writefile{toc}{\contentsline {subsubsection}{\numberline {3.7.5}Pipeline Level}{13}}
\@writefile{toc}{\contentsline {subsubsection}{\numberline {3.7.6}Module Level}{13}}
\@writefile{toc}{\contentsline {subsection}{\numberline {3.8}Performance}{13}}
\@writefile{toc}{\contentsline {section}{\numberline {4}NHPPS Optional Components}{13}}
\@writefile{lof}{\contentsline {figure}{\numberline {3}{\ignorespaces Mosaic pipeline cluster status example.}}{14}}
\newlabel{fig:plstatus}{{3}{14}}
\@writefile{toc}{\contentsline {subsection}{\numberline {4.1}Data Manager}{15}}
\@writefile{toc}{\contentsline {subsubsection}{\numberline {4.1.1}Pipeline Metadata Archive System}{15}}
\@writefile{toc}{\contentsline {subsubsection}{\numberline {4.1.2}Calibration Library}{15}}
\citation{pasp2}
\@writefile{toc}{\contentsline {subsubsection}{\numberline {4.1.3}Externally Callable Methods}{16}}
\@writefile{lof}{\contentsline {figure}{\numberline {4}{\ignorespaces Example of the pipeline monitor showing processing from the Mosaic Pipeline. The first column is the dataset name (the root name is `A' though in practice there is a more descriptive name), the second column is the pipeline, the third column is the node, and the fourth column are the status flags for each stage. Typically a successfully completed stage is `c' and a successfully completed pipeline ends with `d'. Only pipelines involving the first CCD of the mosaic are shown.}}{17}}
\newlabel{fig:pipemon}{{4}{17}}
\newlabel{pipemon}{{4.2}{17}}
\@writefile{toc}{\contentsline {subsection}{\numberline {4.2}Pipeline Monitor}{17}}
\newlabel{msgmon}{{4.3}{18}}
\@writefile{toc}{\contentsline {subsection}{\numberline {4.3}Message Monitor}{18}}
\newlabel{serversb}{{4.4}{18}}
\@writefile{toc}{\contentsline {subsection}{\numberline {4.4}Switchboard Server}{18}}
\@writefile{toc}{\contentsline {section}{\numberline {5}Implementation}{18}}
\citation{pasp2}
\bibcite{CFH}{{1}{2003}{{CFH: Boulade}}{{}}}
\bibcite{adass1}{{2}{2007}{{Cline}}{{}}}
\bibcite{ODI}{{3}{2002}{{ODI: Jacoby}}{{}}}
\bibcite{Pan-STARRS}{{4}{2002}{{Pan-STARRS: Kaiser}}{{}}}
\bibcite{MMT}{{5}{2000}{{MMT: McLeod}}{{}}}
\bibcite{MosaicImager}{{6}{1998}{{NOAO: Muller}}{{}}}
\bibcite{OPUS}{{7}{1995}{{Rose}}{{}}}
\bibcite{adass2}{{8}{2007}{{Swaters}}{{}}}
\bibcite{LSST}{{9}{2002}{{LSST: Tyson}}{{}}}
\bibcite{adass3}{{10}{2007a}{{Valdes}}{{}}}
\bibcite{pasp2}{{11}{2007b}{{Valdes}}{{}}}
\bibcite{pasp3}{{12}{2007c}{{Valdes}}{{}}}
\bibcite{DEC}{{13}{2005}{{DEC: Wester}}{{}}}
