digraph ODI_NHPPS2 {
labelloc="top"
/*label="ODI PIPELINE DATA FLOW DESIGN - NHPPS"*/

rankdir=LR
ordering=out
nodesep=0.1
edge [dir=both, arrowhead="crow", arrowtail="vee"]
clusterrank=local
color="white"

subgraph cluster_top {
    color = "green"
    label = "Frank"
    top [label="top 5%" color="black" fontcolor="green"]
}

subgraph cluster_calgroupB {
    calB [label="caB"]
    seqB [label="seq"]
    oclB [label="ocl"]
    dpsB [label="dps"]
    /* dtsB [label="dts"] */
    subgraph cluster_calgroupB1 {
	subgraph cluster_seqgroupB { seqB -> oclB }
	color = "white"
	subgraph cluster_dpsgroupB { dpsB }
	/* subgraph cluster_dtsgroupB { dtsB } */
    }

    color = "yellow"; label = "Rob - March 2012"
    calB -> seqB [weight=2]
    calB -> dpsB
    /* calB -> dtsB */

}

subgraph cluster_calgroupF {
    calF [label="caF"]
    seqF [label="seq"]
    oclF [label="ocl"]
    dpsF [label="dps"]
    /* dtsF [label="dts"] */
    subgraph cluster_calgroupF1 {
	subgraph cluster_seqgroupF { seqF -> oclF }
	color = "white"
	subgraph cluster_dpsgroupF { dpsF }
	/* subgraph cluster_dtsgroupF { dtsF } */
    }

    color = "yellow"; label = "Rob - April 2012"
    calF -> seqF [weight=2]
    calF -> dpsF
    /* calF -> dtsF */
}

subgraph ftrgroupStatic  {
    ftr [label="ftr 90%" color="black" fontcolor="green"]
    exp [label="exp 20%" color="black" fontcolor="green"]
    ota [label="ota 50%" color="black" fontcolor="green"]
    sky [label="sky"]
    pgr [label="pgr"]
    spg [label="spg"]
    frg [label="frg"]
    sfg [label="sfg"]
    sft [label="sft"]
    ssf [label="ssf"]
    rsp [label="rsp"]
    srs [label="srs"]
    stk [label="stk 50%" color="black" fontcolor="green"]
    esk [label="esk 80%" color="black" fontcolor="green"]
    osk [label="osk"]
    mov [label="mov"]
    dps [label="dps"]
    /* dts [label="dts"] */

    subgraph cluster_expgroup  { exp -> ota   }
    subgraph cluster_skygroup {
	subgraph cluster_skygroup1 {
	    color="white"
	    subgraph cluster_pgrgroup  { pgr  -> spg  }
	    subgraph cluster_frggroup  { frg  -> sfg  }
	    subgraph cluster_sftgroup  { sft  -> ssf  }
	    subgraph cluster_rspgroup  { rsp  -> srs  }
	}
	edge [dir=both, arrowhead="normal", arrowtail="normal"]
	sky -> pgr; sky -> frg; sky -> sft; sky -> rsp
    }
    subgraph cluster_stkgroup {
        subgraph cluster_estgroup { esk -> osk }
	subgraph cluster_movgroup { stk; mov; stk -> mov }
	stk -> esk
	color="white"
    }
    color="white"
    subgraph cluster_dpsgroup  { dps }
    /* subgraph cluster_dtsgroup  { dts } */

    color="white"
    ftr -> exp
    ftr -> sky
    ftr -> stk
    ftr -> dps
    /* ftr -> dts */
}

subgraph cluster_ftrgroupGuided  {
    ftrG [label="ftG"]
    expG [label="exG"]
    otaG [label="otG"]
    stkG [label="stk"]
    eskG [label="esk"]
    oskG [label="osk"]
    movG [label="mov"]
    dpsG [label="dps"]
    /* dtsG [label="dts"] */

    subgraph cluster_expgroupG { expG -> otaG }
    subgraph cluster_stkgroupG {
        subgraph cluster_eskgroupG { eskG -> oskG }
	subgraph cluster_movgroupG { stkG; movG; stkG -> movG }
	stkG -> eskG
	color="white"
    }
    color="white"
    subgraph cluster_dpsgroupG  { dpsG }
    /* subgraph cluster_dtsgroupG  { dtsG } */

    color="red"; label="August 2012"
    ftrG -> expG
    ftrG -> stkG
    ftrG -> dpsG
    dps -> otaG [style="invis"]
    expG -> stkG [style="invis"]
    stkG -> dpsG [style="invis"]
    /* ftrG -> dtsG */
}

edge [arrowhead="normal"]
top -> calB
edge [arrowhead="crow"]
top -> calF
top -> ftr [minlen=5 weight=3]
top -> ftrG [weight=2]

}
