\relax 
\@writefile{toc}{\contentsline {section}{\numberline {1}Introduction}{1}}
\@writefile{toc}{\contentsline {section}{\numberline {2}Database Schema}{1}}
\@writefile{toc}{\contentsline {subsection}{\numberline {2.1}Examples}{1}}
\@writefile{lof}{\contentsline {figure}{\numberline {1}{\ignorespaces PSQDB database schema. }}{2}}
\newlabel{fig:PSQDBschema}{{1}{2}}
\@writefile{lof}{\contentsline {figure}{\numberline {2}{\ignorespaces DATASETS Table: Example record before processing.}}{2}}
\@writefile{lof}{\contentsline {figure}{\numberline {3}{\ignorespaces DATASETS Table: Example record after processing.}}{2}}
\@writefile{lof}{\contentsline {figure}{\numberline {4}{\ignorespaces SUBSETS Table: Example records from subsets.}}{3}}
\@writefile{lof}{\contentsline {figure}{\numberline {5}{\ignorespaces DATASETS and SUBSETS Tables: Reprocessing.}}{4}}
\@writefile{toc}{\contentsline {section}{\numberline {3}Messages}{5}}
\@writefile{lof}{\contentsline {figure}{\numberline {6}{\ignorespaces Dataset-level messages }}{6}}
\newlabel{fig:msgDataset}{{6}{6}}
\@writefile{lof}{\contentsline {figure}{\numberline {7}{\ignorespaces Subset accept and archive messages }}{6}}
\newlabel{fig:msgArchive}{{7}{6}}
\@writefile{lof}{\contentsline {figure}{\numberline {8}{\ignorespaces Subset-level messages }}{7}}
\newlabel{fig:msgSubset}{{8}{7}}
