\contentsline {figure}{\numberline {1}{\ignorespaces PSQDB database schema. }}{2}
\contentsline {figure}{\numberline {2}{\ignorespaces DATASETS Table: Example record before processing.}}{2}
\contentsline {figure}{\numberline {3}{\ignorespaces DATASETS Table: Example record after processing.}}{2}
\contentsline {figure}{\numberline {4}{\ignorespaces SUBSETS Table: Example records from subsets.}}{3}
\contentsline {figure}{\numberline {5}{\ignorespaces DATASETS and SUBSETS Tables: Reprocessing.}}{4}
\contentsline {figure}{\numberline {6}{\ignorespaces Dataset-level messages }}{6}
\contentsline {figure}{\numberline {7}{\ignorespaces Subset accept and archive messages }}{6}
\contentsline {figure}{\numberline {8}{\ignorespaces Subset-level messages }}{7}
