\relax 
\@writefile{toc}{\contentsline {section}{\numberline {1}Description}{2}}
\@writefile{toc}{\contentsline {subsection}{\numberline {1.1}Format}{2}}
\@writefile{toc}{\contentsline {subsection}{\numberline {1.2}Keywords}{2}}
\@writefile{toc}{\contentsline {subsection}{\numberline {1.3}Values}{3}}
\@writefile{toc}{\contentsline {section}{\numberline {2}Examples}{4}}
\@writefile{lof}{\contentsline {figure}{\numberline {1}{\ignorespaces Message from IRAF GETCAL client to Python Calibration Manager}}{4}}
