\relax 
\newlabel{P4-20}{{}{1}}
\@writefile{toc}{\contentsline {section}{\numberline {1.}Introduction}{1}}
\@writefile{toc}{\contentsline {section}{\numberline {2.}A Distributed Pipeline System}{1}}
\@writefile{toc}{\contentsline {section}{\numberline {3.}Calibration}{2}}
\@writefile{toc}{\contentsline {section}{\numberline {4.}Data Quality}{3}}
\@writefile{toc}{\contentsline {section}{\numberline {5.}Rules}{4}}
\@writefile{toc}{\contentsline {section}{\numberline {6.}Data products}{4}}
\@writefile{toc}{\contentsline {section}{\numberline {7.}Performance}{4}}
