\contentsline {section}{\numberline {1}Introduction}{2}
\contentsline {section}{\numberline {2}A Distributed Pipeline System}{2}
\contentsline {section}{\numberline {3}Calibration}{3}
\contentsline {section}{\numberline {4}Data Quality}{4}
\contentsline {section}{\numberline {5}Rules}{4}
\contentsline {section}{\numberline {6}Data products}{4}
\contentsline {section}{\numberline {7}Performance}{5}
