\relax 
\@writefile{toc}{\contentsline {section}{\numberline {1}Introduction}{2}}
\@writefile{toc}{\contentsline {section}{\numberline {2}A Distributed Pipeline System}{2}}
\@writefile{toc}{\contentsline {section}{\numberline {3}Calibration}{3}}
\@writefile{toc}{\contentsline {section}{\numberline {4}Data Quality}{4}}
\@writefile{toc}{\contentsline {section}{\numberline {5}Rules}{4}}
\@writefile{toc}{\contentsline {section}{\numberline {6}Data products}{4}}
\bibcite{cline}{{1}{}{{}}{{}}}
\bibcite{valdes}{{2}{}{{}}{{}}}
\global\NAT@numberstrue
\@writefile{toc}{\contentsline {section}{\numberline {7}Performance}{5}}
