\contentsline {section}{Purpose of this Document}{2}
\contentsline {section}{\numberline {1}Introduction}{2}
\contentsline {section}{\numberline {2}Queues Page}{3}
\contentsline {section}{\numberline {3}Queue Page}{4}
\contentsline {section}{\numberline {4}Dataset Processing Page}{6}
\contentsline {section}{\numberline {5}Implementation}{9}
\contentsline {section}{\numberline {6}Related Interface Tools}{9}
