This is BibTeX, Version 0.99c (TeX Live 2009)
The top-level auxiliary file: PL026.aux
The style file: abbrv.bst
Database file #1: PLSeries.bib
You've used 2 entries,
            2118 wiz_defined-function locations,
            513 strings with 4053 characters,
and the built_in function-call counts, 580 in all, are:
= -- 56
> -- 36
< -- 2
+ -- 14
- -- 12
* -- 41
:= -- 117
add.period$ -- 8
call.type$ -- 2
change.case$ -- 12
chr.to.int$ -- 0
cite$ -- 2
duplicate$ -- 18
empty$ -- 31
format.name$ -- 12
if$ -- 109
int.to.chr$ -- 0
int.to.str$ -- 2
missing$ -- 0
newline$ -- 15
num.names$ -- 4
pop$ -- 8
preamble$ -- 1
purify$ -- 10
quote$ -- 0
skip$ -- 11
stack$ -- 0
substring$ -- 10
swap$ -- 2
text.length$ -- 2
text.prefix$ -- 0
top$ -- 0
type$ -- 8
warning$ -- 0
while$ -- 4
width$ -- 3
write$ -- 28
