\relax 
\citation{PL012}
\citation{PL012}
\citation{PL012}
\citation{PL004}
\citation{PL012}
\@writefile{toc}{\contentsline {section}{Purpose of this Document}{2}}
\@writefile{toc}{\contentsline {section}{\numberline {1}Introduction}{2}}
\@writefile{lot}{\contentsline {table}{\numberline {1}{\ignorespaces Pipeline Scheduling UI Feature Summary}}{3}}
\newlabel{tbl:features}{{1}{3}}
\@writefile{toc}{\contentsline {section}{\numberline {2}Queues Page}{3}}
\@writefile{lof}{\contentsline {figure}{\numberline {1}{\ignorespaces Queues Page}}{4}}
\newlabel{fig:psq_queues}{{1}{4}}
\@writefile{lof}{\contentsline {figure}{\numberline {2}{\ignorespaces Modifying the Queue State}}{4}}
\newlabel{fig:psq_enable}{{2}{4}}
\newlabel{psq_queue}{{3}{4}}
\@writefile{toc}{\contentsline {section}{\numberline {3}Queue Page}{4}}
\@writefile{lof}{\contentsline {figure}{\numberline {3}{\ignorespaces Datasets in a Queue}}{5}}
\newlabel{fig:psq_queue}{{3}{5}}
\@writefile{lof}{\contentsline {figure}{\numberline {4}{\ignorespaces Status Update Page }}{5}}
\newlabel{fig:psq_status}{{4}{5}}
\@writefile{lof}{\contentsline {figure}{\numberline {5}{\ignorespaces Comments Page }}{5}}
\newlabel{fig:psq_comments}{{5}{5}}
\@writefile{lot}{\contentsline {table}{\numberline {2}{\ignorespaces Queue Page Dataset Status Values}}{6}}
\newlabel{tbl:status}{{2}{6}}
\newlabel{dataset}{{4}{6}}
\@writefile{toc}{\contentsline {section}{\numberline {4}Dataset Processing Page}{6}}
\@writefile{lof}{\contentsline {figure}{\numberline {6}{\ignorespaces Dataset Processing Page}}{7}}
\newlabel{fig:psq_datasets}{{6}{7}}
\@writefile{lof}{\contentsline {figure}{\numberline {7}{\ignorespaces Example Redo Form (still under development)}}{9}}
\newlabel{fig:redo}{{7}{9}}
\@writefile{toc}{\contentsline {section}{\numberline {5}Implementation}{9}}
\@writefile{toc}{\contentsline {section}{\numberline {6}Related Interface Tools}{9}}
\bibdata{PLSeries}
\bibcite{PL012}{{1}{}{{}}{{}}}
\bibcite{PL004}{{2}{}{{}}{{}}}
\bibstyle{abbrv}
\providecommand\NAT@force@numbers{}\NAT@force@numbers
\@writefile{lot}{\contentsline {table}{\numberline {3}{\ignorespaces Values and Links in the Archiving Column}}{11}}
\newlabel{tbl:submitted}{{3}{11}}
\@writefile{lof}{\contentsline {figure}{\numberline {8}{\ignorespaces Example Pipeline Generated Operator Review Page}}{12}}
\newlabel{fig:review}{{8}{12}}
\@writefile{lof}{\contentsline {figure}{\numberline {9}{\ignorespaces Sample E-mail Sent with the Notification Link.}}{13}}
\newlabel{notification}{{9}{13}}
