\relax 
\newlabel{ P2.2.11}{{}{1}}
\@writefile{toc}{\contentsline {section}{\numberline {1.}Overview}{1}}
\@writefile{toc}{\contentsline {section}{\numberline {2.}Architecture}{1}}
\@writefile{lof}{\contentsline {figure}{\numberline {1}{\ignorespaces Class diagram for FLIPPER.}}{2}}
\@writefile{lof}{\contentsline {figure}{\numberline {2}{\ignorespaces Multi-node deployment diagram. Three processing modes are shown. Optional GUIs can be used to monitor and control the whole processing network.}}{3}}
\@writefile{lof}{\contentsline {figure}{\numberline {3}{\ignorespaces Deployment diagram for a single processing node. Resource Manager and Operator GUIs are shown for completeness.}}{4}}
\@writefile{toc}{\contentsline {section}{\numberline {3.}Configuration}{4}}
\@writefile{toc}{\contentsline {section}{\numberline {4.}Status and Availability}{5}}
