\relax 
\@writefile{toc}{\contentsline {section}{\numberline {1}Overview}{2}}
\@writefile{toc}{\contentsline {section}{\numberline {2}Architecture}{2}}
\@writefile{lof}{\contentsline {figure}{\numberline {1}{\ignorespaces Class diagram for FLIPPER.}}{3}}
\@writefile{toc}{\contentsline {section}{\numberline {3}Configuration}{3}}
\@writefile{lof}{\contentsline {figure}{\numberline {2}{\ignorespaces Multi-node deployment diagram. Three processing modes are shown. Optional GUIs can be used to monitor and control the whole processing network.}}{4}}
\bibcite{pierfederici}{{1}{}{{}}{{}}}
\bibcite{hiriart}{{2}{}{{}}{{}}}
\@writefile{lof}{\contentsline {figure}{\numberline {3}{\ignorespaces Deployment diagram for a single processing node. Resource Manager and Operator GUIs are shown for completeness.}}{5}}
\@writefile{toc}{\contentsline {section}{\numberline {4}Status and Availability}{5}}
\bibcite{miller}{{3}{}{{}}{{}}}
\bibcite{valdes}{{4}{}{{}}{{}}}
\global\NAT@numberstrue
