\contentsline {section}{\numberline {1}Overview}{2}
\contentsline {section}{\numberline {2}Architecture}{2}
\contentsline {section}{\numberline {3}Configuration}{3}
\contentsline {section}{\numberline {4}Status and Availability}{5}
