\contentsline {figure}{\numberline {1}{\ignorespaces Class diagram for FLIPPER.}}{3}
\contentsline {figure}{\numberline {2}{\ignorespaces Multi-node deployment diagram. Three processing modes are shown. Optional GUIs can be used to monitor and control the whole processing network.}}{4}
\contentsline {figure}{\numberline {3}{\ignorespaces Deployment diagram for a single processing node. Resource Manager and Operator GUIs are shown for completeness.}}{5}
