\relax 
\citation{PL015}
\@writefile{lot}{\contentsline {table}{\numberline {1}{\ignorespaces DQ Flag Types and Codes for Stacked Images}}{2}}
\newlabel{tbl:codes}{{1}{2}}
\@writefile{toc}{\contentsline {section}{Introduction}{2}}
\@writefile{toc}{\contentsline {section}{\numberline {1}No data}{2}}
\citation{PL015}
\@writefile{toc}{\contentsline {section}{\numberline {2}No good pixels}{3}}
\@writefile{toc}{\contentsline {subsection}{\numberline {2.1}source saturation}{3}}
\@writefile{toc}{\contentsline {subsection}{\numberline {2.2}mixture of bad data quality}{3}}
\@writefile{toc}{\contentsline {subsection}{\numberline {2.3}all data rejected by combining algorithm}{3}}
\@writefile{toc}{\contentsline {section}{\numberline {9}Other}{3}}
\bibcite{PL015}{{1}{2008}{{Valdes}}{{}}}
\@writefile{toc}{\contentsline {section}{\numberline {A}NOAO Pipeline Application Notes}{4}}
