\contentsline {section}{Introduction}{2}
\contentsline {section}{\numberline {1}No data}{2}
\contentsline {section}{\numberline {2}No good pixels}{3}
\contentsline {subsection}{\numberline {2.1}source saturation}{3}
\contentsline {subsection}{\numberline {2.2}mixture of bad data quality}{3}
\contentsline {subsection}{\numberline {2.3}all data rejected by combining algorithm}{3}
\contentsline {section}{\numberline {9}Other}{3}
\contentsline {section}{\numberline {A}NOAO Pipeline Application Notes}{4}
