\contentsline {section}{Introduction}{1}
\contentsline {section}{\numberline {1}The Calibration Model}{1}
\contentsline {section}{\numberline {2}Calibration Algorithms}{3}
\contentsline {subsection}{\numberline {2.1}Dark Energy Camera}{3}
\contentsline {subsection}{\numberline {2.2}Mosaic Imager}{5}
\contentsline {subsection}{\numberline {2.3}One Degree Imager}{7}
