digraph ODI_NHPPS2 {
labelloc="top"
/*label="ODI PIPELINE DATA FLOW DESIGN - NHPPS"*/

rankdir=LR
ordering=out
nodesep=0.1
edge [dir=both, arrowhead="crow", arrowtail="vee"]
clusterrank=local
color="white"

ftr [label="ftr" color="red" fontcolor="red"]
exp [label="exp" color="red" fontcolor="red"]
ota [label="ota" color="red" fontcolor="red"]
stk [label="stk" color="red" fontcolor="red"]
esk [label="esk" color="red" fontcolor="red"]

subgraph cluster_expgroup  { exp -> ota   }
subgraph cluster_stkgroup { stk -> esk }

color="white"
ftr -> exp
ftr -> stk
