\relax 
\newlabel{dflat}{{12}{13}}
\@writefile{toc}{\contentsline {section}{\numberline {12}Dome Flat Fielding}{13}}
\newlabel{sclflat}{{12.1}{13}}
\@writefile{toc}{\contentsline {subsection}{\numberline {12.1}Dome and Twilight Flat Calibrations}{13}}
\@setckpt{dflat}{
\setcounter{page}{14}
\setcounter{equation}{0}
\setcounter{enumi}{0}
\setcounter{enumii}{0}
\setcounter{enumiii}{0}
\setcounter{enumiv}{0}
\setcounter{footnote}{0}
\setcounter{mpfootnote}{0}
\setcounter{part}{0}
\setcounter{section}{12}
\setcounter{subsection}{1}
\setcounter{subsubsection}{0}
\setcounter{paragraph}{0}
\setcounter{subparagraph}{0}
\setcounter{figure}{0}
\setcounter{table}{0}
\setcounter{NAT@ctr}{0}
}
