\relax 
\newlabel{rsp}{{20}{18}}
\@writefile{toc}{\contentsline {section}{\numberline {20}Astrometric Transformations}{18}}
\newlabel{rsptan}{{20.1}{18}}
\@writefile{toc}{\contentsline {subsection}{\numberline {20.1}Setting a Common Sampling}{18}}
\newlabel{rsprsp}{{20.2}{19}}
\@writefile{toc}{\contentsline {subsection}{\numberline {20.2}Resampling Images}{19}}
\newlabel{mosaic}{{21}{20}}
\@writefile{toc}{\contentsline {section}{\numberline {21}Mosaicking}{20}}
\newlabel{stk}{{22}{20}}
\@writefile{toc}{\contentsline {section}{\numberline {22}Overlap Stacking}{20}}
\@setckpt{rsp}{
\setcounter{page}{22}
\setcounter{equation}{0}
\setcounter{enumi}{0}
\setcounter{enumii}{0}
\setcounter{enumiii}{0}
\setcounter{enumiv}{0}
\setcounter{footnote}{0}
\setcounter{mpfootnote}{0}
\setcounter{part}{0}
\setcounter{section}{22}
\setcounter{subsection}{0}
\setcounter{subsubsection}{0}
\setcounter{paragraph}{0}
\setcounter{subparagraph}{0}
\setcounter{figure}{0}
\setcounter{table}{0}
\setcounter{NAT@ctr}{0}
}
