\relax 
\newlabel{skycal}{{1}{2}}
\@writefile{toc}{\contentsline {section}{\numberline {1}Dark Sky Self-Calibrations}{2}}
\@writefile{toc}{\contentsline {subsection}{\numberline {1.1}Identifying Exposures for Dark Sky Calibrations}{3}}
\@writefile{lof}{\contentsline {figure}{\numberline {1}{\ignorespaces  Example overlap histogram for eight Mosaic exposures. The solid line is from the sky pixels identified in the exposures and the dotted line is the upper limit for acceptance of the exposures for a dark sky stack. Each bin represents the percentage of the total number of pixels, where 100\% is $8192^2 = 67108856$ pixels, which have fewer than X percent of exposures sampling sky, where X is ordinate at the right of the bin. In this example 41\% of the pixels have fewer than 100\% of sky pixels which means 59\% of the pixels have no sources in any exposure. }}{5}}
\@writefile{toc}{\contentsline {subsection}{\numberline {1.2}General Considerations in the Dark Sky Self-Calibrations}{6}}
\newlabel{pgr}{{1.3}{6}}
\@writefile{toc}{\contentsline {subsection}{\numberline {1.3}Pupil Ghost and Fringe Pattern Subtraction}{6}}
\@writefile{lof}{\contentsline {figure}{\numberline {2}{\ignorespaces  The two panels are negative contrast displays from the same central 4K x4K region (covering 4 or the 8 CCDs) of a KPNO Mosaic z'-band exposure. On the left is the result after dome calibration and on the right after dark sky self-calibration. The instrumental effects seen in the left panel are the pupil ghost pattern, fringing, and an illumination pattern. This is a challenging example because bright sources overlap the pupil ghost pattern. The bright lines on the edges of the CCDs are an anti-aliasing display artifact. }}{7}}
\newlabel{fig:rawcal}{{2}{7}}
\@writefile{lof}{\contentsline {figure}{\numberline {3}{\ignorespaces These panels show the three calibrations extracted, successively, from a dark sky image produced from KPNO Mosaic z'-band exposures taken on one night. The exposure shown in figure\nobreakspace  {}2\hbox {} is from this dataset and the calibrations shown here were used on that exposure. The left panel shows the pupil ghost template occupying the central region of the exposure. The middle panel shows the fringe template for two of the eight CCDs. The right panel shows the illumination flat field for the whole field. The left and middle panels cover one-fourth of the field (4K x 4K). Note the presence of fringes in the pupil template and the corresponding absense of fringes in the upper left corner of the middle panel where the pupil pattern was removed. This illustrates the difficulty of disentangling effects.}}{8}}
\newlabel{fig:skycal}{{3}{8}}
\newlabel{sft}{{1.4}{9}}
\@writefile{toc}{\contentsline {subsection}{\numberline {1.4}Dark Sky Flat}{9}}
\newlabel{photcal}{{2}{9}}
\@writefile{toc}{\contentsline {section}{\numberline {2}Photometric Characterization}{9}}
\@setckpt{skycal}{
\setcounter{page}{10}
\setcounter{equation}{0}
\setcounter{enumi}{0}
\setcounter{enumii}{0}
\setcounter{enumiii}{0}
\setcounter{enumiv}{0}
\setcounter{footnote}{0}
\setcounter{mpfootnote}{0}
\setcounter{part}{0}
\setcounter{section}{2}
\setcounter{subsection}{0}
\setcounter{subsubsection}{0}
\setcounter{paragraph}{0}
\setcounter{subparagraph}{0}
\setcounter{figure}{3}
\setcounter{table}{0}
\setcounter{NAT@ctr}{0}
}
