\relax 
\newlabel{zero}{{11}{12}}
\@writefile{toc}{\contentsline {section}{\numberline {11}Bias and Dark Count Pattern}{12}}
\newlabel{sclzero}{{11.1}{12}}
\@writefile{toc}{\contentsline {subsection}{\numberline {11.1}Bias Calibrations}{12}}
\@setckpt{zero}{
\setcounter{page}{13}
\setcounter{equation}{0}
\setcounter{enumi}{0}
\setcounter{enumii}{0}
\setcounter{enumiii}{0}
\setcounter{enumiv}{0}
\setcounter{footnote}{0}
\setcounter{mpfootnote}{0}
\setcounter{part}{0}
\setcounter{section}{11}
\setcounter{subsection}{1}
\setcounter{subsubsection}{0}
\setcounter{paragraph}{0}
\setcounter{subparagraph}{0}
\setcounter{figure}{0}
\setcounter{table}{0}
\setcounter{NAT@ctr}{0}
}
