\relax 
\newlabel{P4.19}{{}{1}}
\@writefile{toc}{\contentsline {section}{\numberline {1.}Introduction}{1}}
\@writefile{toc}{\contentsline {section}{\numberline {2.}Pipeline Management System}{1}}
\@writefile{toc}{\contentsline {subsection}{\numberline {2.1.}Pipeline Description Language}{2}}
\@writefile{toc}{\contentsline {subsubsection}{Actions}{2}}
\@writefile{toc}{\contentsline {subsubsection}{Events}{2}}
\@writefile{toc}{\contentsline {subsection}{\numberline {2.2.}Pipeline Manager}{3}}
\@writefile{toc}{\contentsline {subsubsection}{Module Manager}{3}}
\@writefile{toc}{\contentsline {subsubsection}{Blackboards}{3}}
\@writefile{toc}{\contentsline {section}{\numberline {3.}Services}{3}}
\@writefile{toc}{\contentsline {subsection}{\numberline {3.1.}Node Manager}{3}}
\bibcite{pierfederici}{Pierfederici, F. (2005)}
\bibcite{rose}{Rose, J., et al. (1995)}
\bibcite{swaters}{Swaters, R. and Valdes, F. (2006)}
\bibcite{valdes}{Valdes, F and Swaters, R (2006)}
\@writefile{toc}{\contentsline {subsection}{\numberline {3.2.}Directory Server}{4}}
\@writefile{toc}{\contentsline {subsection}{\numberline {3.3.}Pipeline Selection Utility}{4}}
