%!PS-Adobe-3.0 EPSF-3.0
%%Title: IRAF SGI plot
%%Creator: sgi2ueps
%%CreationDate: Thu Mar 13 09:36:28 2008
%%BoundingBox: 72 240 540 552
%%Pages: 1
%%EndComments
/devppi 300 def
/userppi 72 def
/pagewidth 8.5 def
/devpixtouser { userppi mul devppi div } def
/setscale { 1 devpixtouser 1 devpixtouser scale } def
/pagetolandscape 90 def
/setcoords { pagewidth userppi mul 0 translate
    pagetolandscape rotate setscale } def
/setjoins { 1 setlinejoin 1 setlinecap } def
/getpoint {
	currentfile read pop 8#77 and 6 bitshift
	currentfile read pop 8#77 and or
	currentfile read pop 8#77 and 6 bitshift
	currentfile read pop 8#77 and or
	} def
/m { getpoint moveto } def
/d { getpoint lineto } def
%%EndProlog
%%Page: 1 1
gsave setscale setjoins
01 setlinewidth
03 setlinewidth
m HxRg d HxRg d HxSD d HxRg 
stroke
01 setlinewidth
m HsRK d HpRJ d HnRG d HmRA d HmQ~ d HnQy d HpQv d HsQu d HuQu d HxQv
d HzQy d H{Q~ d H{RA d HzRG d HxRJ d HuRK d HsRK m HpRI d HoRG d HnRB
d HnQ} d HoQy d HpQw m HxQw d HyQy d HzQ} d HzRB d HyRG d HxRI m HsRK
d HqRJ d HpRH d HoRB d HoQ} d HpQx d HqQv d HsQu m HuQu d HwQv d HxQx
d HyQ} d HyRB d HxRH d HwRJ d HuRK m HlQm 
stroke
03 setlinewidth
m HxRg d I~Rg d I~Ru d I~Rg d KERg d KERu d KERg d LLRg d LLRu d LLRg
d MRRg d MRRu d MRRg d NYRg d NYSD d NYRg 
stroke
01 setlinewidth
m NDRG d NDRF d NERF d NERG d NDRG m NDRH d NERH d NFRG d NFRF d NERE
d NDRE d NCRF d NCRG d NDRI d NERJ d NHRK d NLRK d NORJ d NPRI d NQRG
d NQRE d NPRB d NMR@ d NHQ~ d NFQ} d NDQ{ d NCQx d NCQu m NORI d NPRG
d NPRE d NORB m NLRK d NNRJ d NORG d NORE d NNRB d NLR@ d NHQ~ m NCQw
d NDQx d NFQx d NKQw d NOQw d NQQx m NFQx d NKQv d NOQv d NPQw m NFQx
d NKQu d NOQu d NPQv d NQQx d NQQz m NBQm m N\RK d NZR@ d N\RB d N_RC
d NbRC d NeRB d NgR@ d NhQ} d NhQ{ d NgQx d NeQv d NbQu d N_Qu d N\Qv
d N[Qw d NZQy d NZQz d N[Q{ d N\Q{ d N]Qz d N]Qy d N\Qx d N[Qx m NfR@
d NgQ~ d NgQz d NfQx m NbRC d NdRB d NeRA d NfQ~ d NfQz d NeQw d NdQv
d NbQu m N[Qz d N[Qy d N\Qy d N\Qz d N[Qz m N\RK d NfRK m N\RJ d NdRJ
m N\RI d N`RI d NdRJ d NfRK m NYQm 
stroke
03 setlinewidth
m NYRg d O`Rg d O`Ru d O`Rg d PfRg d PfRu d PfRg d QmRg d QmRu d QmRg
d RtRg d RtRu d RtRg d SzRg d SzSD d SzRg 
stroke
01 setlinewidth
m SgRK d SeR@ d SgRB d SjRC d SmRC d SpRB d SrR@ d SrQ} d SrQ{ d SrQx
d SpQv d SmQu d SjQu d SgQv d SfQw d SeQy d SeQz d SfQ{ d SgQ{ d ShQz
d ShQy d SgQx d SfQx m SqR@ d SrQ~ d SrQz d SqQx m SmRC d SoRB d SpRA
d SqQ~ d SqQz d SpQw d SoQv d SmQu m SfQz d SfQy d SgQy d SgQz d SfQz
m SgRK d SqRK m SgRJ d SoRJ m SgRI d SkRI d SoRJ d SqRK m SdQm m TARK
d S~RJ d S|RG d S{RA d S{Q~ d S|Qy d S~Qv d TAQu d TCQu d TFQv d THQy
d TIQ~ d TIRA d THRG d TFRJ d TCRK d TARK m S~RI d S}RG d S|RB d S|Q}
d S}Qy d S~Qw m TFQw d TGQy d THQ} d THRB d TGRG d TFRI m TARK d S?RJ
d S~RH d S}RB d S}Q} d S~Qx d S?Qv d TAQu m TCQu d TEQv d TFQx d TGQ}
d TGRB d TFRH d TERJ d TCRK m SzQm 
stroke
03 setlinewidth
m SzRg d UARg d UARu d UARg d VHRg d VHRu d VHRg d WORg d WORu d WORg
d XURg d XURu d XURg d Y\Rg d Y\SD d Y\Rg 
stroke
01 setlinewidth
m YFRK d YFRE m YTRK d YTRH d YSRE d YOQ? d YNQ} d YMQy d YMQu m YNQ~
d YMQ| d YLQy d YLQu m YSRE d YNQ? d YLQ| d YKQy d YKQu d YMQu m YFRG
d YGRI d YIRK d YKRK d YPRH d YRRH d YSRI d YTRK m YHRI d YIRJ d YKRJ
d YMRI m YFRG d YGRH d YIRI d YKRI d YPRH m YEQm m Y_RK d Y]R@ d Y_RB
d YbRC d YeRC d YhRB d YiR@ d YjQ} d YjQ{ d YiQx d YhQv d YeQu d YbQu
d Y_Qv d Y^Qw d Y]Qy d Y]Qz d Y^Q{ d Y_Q{ d Y`Qz d Y`Qy d Y_Qx d Y^Qx
m YhR@ d YiQ~ d YiQz d YhQx m YeRC d YfRB d YhRA d YhQ~ d YhQz d YhQw
d YfQv d YeQu m Y^Qz d Y^Qy d Y_Qy d Y_Qz d Y^Qz m Y_RK d YhRK m Y_RJ
d YfRJ m Y_RI d YcRI d YfRJ d YhRK m Y\Qm 
stroke
03 setlinewidth
m Y\Rg d ZcRg d ZcRu d ZcRg d [iRg d [iRu d [iRg d \pRg d \pRu d \pRg
d ]wRg d ]wRu d ]wRg d ^}Rg d ^}SD d ^}Rg 
stroke
01 setlinewidth
m ^bRI d ^bQu m ^cRI d ^cQv m ^dRK d ^dQu m ^dRK d ^aRH d ^_RG m ^^Qu
d ^hQu m ^bQv d ^`Qu m ^bQw d ^aQu m ^dQw d ^eQu m ^dQv d ^fQu m ^\Qm
m ^yRK d ^vRJ d ^tRG d ^sRA d ^sQ~ d ^tQy d ^vQv d ^yQu d ^{Qu d ^~Qv
d _@Qy d _AQ~ d _ARA d _@RG d ^~RJ d ^{RK d ^yRK m ^vRI d ^uRG d ^tRB
d ^tQ} d ^uQy d ^vQw m ^~Qw d ^?Qy d _@Q} d _@RB d ^?RG d ^~RI m ^yRK
d ^wRJ d ^vRH d ^uRB d ^uQ} d ^vQx d ^wQv d ^yQu m ^{Qu d ^}Qv d ^~Qx
d ^?Q} d ^?RB d ^~RH d ^}RJ d ^{RK m ^rQm m _ORK d _LRJ d _JRG d _IRA
d _IQ~ d _JQy d _LQv d _OQu d _QQu d _TQv d _VQy d _WQ~ d _WRA d _VRG
d _TRJ d _QRK d _ORK m _LRI d _KRG d _JRB d _JQ} d _KQy d _LQw m _TQw
d _UQy d _VQ} d _VRB d _URG d _TRI m _ORK d _MRJ d _LRH d _KRB d _KQ}
d _LQx d _MQv d _OQu m _QQu d _SQv d _TQx d _UQ} d _URB d _TRH d _SRJ
d _QRK m _IQm 
stroke
03 setlinewidth
m ^}Rg d ^}Rg m ^}Rg d ^}Rg d ^[Rg d ^}Rg d ^}SZ d ^lSZ d ^}SZ d ^}TN
d ^lTN d ^}TN d ^}UA d ^lUA d ^}UA d ^}Uu d ^lUu d ^}Uu d ^}Vi d ^[Vi
d ^}Vi d ^}W\ d ^lW\ d ^}W\ d ^}XP d ^lXP d ^}XP d ^}YD d ^lYD d ^}YD
d ^}Yw d ^lYw d ^}Yw d ^}Zk d ^[Zk d ^}Zk d ^}[^ d ^l[^ d ^}[^ d ^}\R
d ^l\R d ^}\R d ^}]F d ^l]F d ^}]F d ^}]y d ^l]y d ^}]y d ^}^m d ^[^m
d ^}^m d ^}_a d ^l_a d ^}_a d ^}`T d ^l`T d ^}`T d ^}aH d ^laH d ^}aH
d ^}a{ d ^la{ d ^}a{ d ^}bo d ^[bo d ^}bo d ^}bo m HxRg d HxRg d IZRg
d HxRg 
stroke
01 setlinewidth
m HZRq d HWRp d HURm d HTRh d HTRd d HUR_ d HWR\ d HZR[ d H\R[ d H_R\
d HaR_ d HbRd d HbRh d HaRm d H_Rp d H\Rq d HZRq m HWRo d HVRm d HURi
d HURc d HVR_ d HWR] m H_R] d H`R_ d HaRc d HaRi d H`Rm d H_Ro m HZRq
d HXRp d HWRn d HVRi d HVRc d HWR^ d HXR\ d HZR[ m H\R[ d H^R\ d H_R^
d H`Rc d H`Ri d H_Rn d H^Rp d H\Rq m HSRS 
stroke
03 setlinewidth
m HxRg d HxSZ d IISZ d HxSZ d HxTN d IITN d HxTN d HxUA d IIUA d HxUA
d HxUu d IIUu d HxUu d HxVi d IZVi d HxVi 
stroke
01 setlinewidth
m H@Vo d H@Vn d HAVn d HAVo d H@Vo m H@Vp d HAVp d HBVo d HBVn d HAVm
d H@Vm d G?Vn d G?Vo d H@Vq d HAVr d HDVs d HHVs d HKVr d HLVq d HMVo
d HMVm d HLVk d HIVi d HDVg d HBVe d H@Vc d G?V` d G?V] m HKVq d HLVo
d HLVm d HKVk m HHVs d HJVr d HKVo d HKVm d HJVk d HHVi d HDVg m G?V_
d H@V` d HBV` d HGV_ d HKV_ d HMV` m HBV` d HGV^ d HKV^ d HLV_ m HBV`
d HGV] d HKV] d HLV^ d HMV` d HMVb m G~VV m HXVs d HVVi d HXVk d H[Vl
d H^Vl d HaVk d HbVi d HcVe d HcVc d HbV` d HaV^ d H^V] d H[V] d HXV^
d HWV_ d HVVa d HVVb d HWVc d HXVc d HYVb d HYVa d HXV` d HWV` m HaVi
d HbVg d HbVb d HaV` m H^Vl d H_Vk d HaVj d HaVg d HaVb d HaV_ d H_V^
d H^V] m HWVb d HWVa d HXVa d HXVb d HWVb m HXVs d HaVs m HXVr d H_Vr
m HXVq d H\Vq d H_Vr d HaVs m HUVV 
stroke
03 setlinewidth
m HxVi d HxW\ d IIW\ d HxW\ d HxXP d IIXP d HxXP d HxYD d IIYD d HxYD
d HxYw d IIYw d HxYw d HxZk d IZZk d HxZk 
stroke
01 setlinewidth
m HAZu d G?Zk d HAZm d HDZn d HGZn d HJZm d HLZk d HMZh d HMZe d HLZb
d HJZ` d HGZ_ d HDZ_ d HAZ` d H@Za d G?Zc d G?Zd d H@Ze d HAZe d HBZd
d HBZc d HAZb d H@Zb m HKZk d HLZi d HLZd d HKZb m HGZn d HIZm d HJZl
d HKZi d HKZd d HJZa d HIZ` d HGZ_ m H@Zd d H@Zc d HAZc d HAZd d H@Zd
m HAZu d HKZu m HAZt d HIZt m HAZs d HEZs d HIZt d HKZu m G~ZX m H\Zu
d HYZt d HWZq d HVZl d HVZi d HWZc d HYZ` d H\Z_ d H^Z_ d HaZ` d HbZc
d HcZi d HcZl d HbZq d HaZt d H^Zu d H\Zu m HYZs d HXZq d HWZm d HWZh
d HXZc d HYZa m HaZa d HaZc d HbZh d HbZm d HaZq d HaZs m H\Zu d HZZt
d HYZr d HXZm d HXZh d HYZb d HZZ` d H\Z_ m H^Z_ d H_Z` d HaZb d HaZh
d HaZm d HaZr d H_Zt d H^Zu m HUZX 
stroke
03 setlinewidth
m HxZk d Hx[^ d II[^ d Hx[^ d Hx\R d II\R d Hx\R d Hx]F d II]F d Hx]F
d Hx]y d II]y d Hx]y d Hx^m d IZ^m d Hx^m 
stroke
01 setlinewidth
m G?^x d G?^q m HM^x d HM^t d HL^q d HH^l d HG^j d HF^e d HF^a m HG^k
d HF^i d HE^e d HE^a m HL^q d HG^l d HE^i d HD^e d HD^a d HF^a m G?^s
d H@^u d HB^x d HD^x d HI^t d HK^t d HL^u d HM^x m HA^u d HB^v d HD^v
d HF^u m G?^s d H@^t d HB^u d HD^u d HI^t m G~^Z m HX^x d HV^m d HX^o
d H[^p d H^^p d Ha^o d Hb^m d Hc^j d Hc^h d Hb^d d Ha^b d H^^a d H[^a
d HX^b d HW^c d HV^e d HV^g d HW^h d HX^h d HY^g d HY^e d HX^d d HW^d
m Ha^m d Hb^k d Hb^g d Ha^d m H^^p d H_^o d Ha^n d Ha^k d Ha^g d Ha^c
d H_^b d H^^a m HW^g d HW^e d HX^e d HX^g d HW^g m HX^x d Ha^x m HX^v
d H_^v m HX^u d H\^u d H_^v d Ha^x m HU^Z 
stroke
03 setlinewidth
m Hx^m d Hx_a d II_a d Hx_a d Hx`T d II`T d Hx`T d HxaH d IIaH d HxaH
d Hxa{ d IIa{ d Hxa{ d Hxbo d IZbo d Hxbo 
stroke
01 setlinewidth
m Gobw d Gobc m Gpbw d Gpbd m Gqbz d Gqbc m Gqbz d Gnbv d Glbu m Gkbc
d Gtbc m Gobd d Gmbc m Gobe d Gnbc m Gqbe d Grbc m Gqbd d Gsbc m Ghb\
m HEbz d HBby d H@bu d G?bp d G?bm d H@bh d HBbd d HEbc d HGbc d HJbd
d HLbh d HMbm d HMbp d HLbu d HJby d HGbz d HEbz m HBbw d HAbu d H@bq
d H@bl d HAbh d HBbe m HJbe d HKbh d HLbl d HLbq d HKbu d HJbw m HEbz
d HCby d HBbv d HAbq d HAbl d HBbg d HCbd d HEbc m HGbc d HIbd d HJbg
d HKbl d HKbq d HJbv d HIby d HGbz m G~b\ m H\bz d HYby d HWbu d HVbp
d HVbm d HWbh d HYbd d H\bc d H^bc d Habd d Hbbh d Hcbm d Hcbp d Hbbu
d Haby d H^bz d H\bz m HYbw d HXbu d HWbq d HWbl d HXbh d HYbe m Habe
d Habh d Hbbl d Hbbq d Habu d Habw m H\bz d HZby d HYbv d HXbq d HXbl
d HYbg d HZbd d H\bc m H^bc d H_bd d Habg d Habl d Habq d Habv d H_by
d H^bz m HUb\ 
stroke
03 setlinewidth
m Hxbo d Hxbo m Hxbo d Hxbo d HxbR d Hxbo d I~bo d I~b` d I~bo d KEbo
d KEb` d KEbo d LLbo d LLb` d LLbo d MRbo d MRb` d MRbo d NYbo d NYbR
d NYbo d O`bo d O`b` d O`bo d Pfbo d Pfb` d Pfbo d Qmbo d Qmb` d Qmbo
d Rtbo d Rtb` d Rtbo d Szbo d SzbR d Szbo d UAbo d UAb` d UAbo d VHbo
d VHb` d VHbo d WObo d WOb` d WObo d XUbo d XUb` d XUbo d Y\bo d Y\bR
d Y\bo d Zcbo d Zcb` d Zcbo d [ibo d [ib` d [ibo d \pbo d \pb` d \pbo
d ]wbo d ]wb` d ]wbo d ^}bo d ^}bR d ^}bo d ^}bo 
stroke
01 setlinewidth
m QtQR d QeP{ m QjQR d QkQO d QkQM d QjQK d QiQJ d QgQJ d QeQL d QeQN
d QfQQ d QhQR d QjQR d QkQQ d QnQO d QpQO d QsQQ d QtQR m QqQC d QoQB
d QoQ@ d QoP} d QpP{ d QrP{ d QtP| d QtP? d QtQA d QsQC d QqQC m QePt
m Q?QY m Q?Pt m RXQJ d RUQI d RTQG d RSQD d RSQB d RTP? d RUP| d RXP{
d RZP{ d R]P| d R_P? d R`QB d R`QD d R_QG d R]QI d RZQJ d RXQJ m RUQG
d RTQE d RTQA d RUP? m R^P? d R_QA d R_QE d R^QG m RXQJ d RVQI d RUQH
d RUQE d RUQA d RUP} d RVP| d RXP{ m RZP{ d R\P| d R]P} d R^QA d R^QE
d R]QH d R\QI d RZQJ m RRPt m RuQO d RuQQ d RtQQ d RtQN d RvQN d RvQQ
d RuQR d RqQR d RnQQ d RmQO d RlQL d RlP{ m RnQO d RmQL d RmP| m RqQR
d RpQQ d RnQN d RnP{ m RhQJ d RtQJ m RhP{ d RrP{ m RlP| d RiP{ m RlP}
d RkP{ m RnP} d RpP{ m RnP| d RqP{ m RhPt m RyQY m RyPt m SOQD d SZQD
d SZQF d SYQH d SXQI d SUQJ d SSQJ d SPQI d SNQG d SMQD d SMQB d SNP?
d SPP| d SSP{ d SUP{ d SXP| d SZP? m SYQE d SYQF d SXQH m SOQG d SNQE
d SNQA d SOP? m SXQD d SXQG d SWQI d SUQJ m SSQJ d SQQI d SPQH d SOQE
d SOQA d SPP} d SQP| d SSP{ m SLPt m SdQJ d SmP{ m SeQJ d SnP{ m SfQJ
d SoP{ m SnQI d SeP| m SbQJ d ShQJ m SkQJ d SqQJ m SbP{ d ShP{ m SjP{
d SqP{ m ScQJ d SeQI m ShQJ d SfQI m SlQJ d SnQI m SpQJ d SnQI m SeP|
d ScP{ m SeP| d SgP{ m SmP| d SkP{ m SnP| d SpP{ m SbPt m S{QJ d S{Pt
m S|QI d S|Pu m SxQJ d S}QJ d S}Pt m S}QG d S~QI d T@QJ d TBQJ d TDQI
d TFQG d TGQD d TGQB d TFP? d TDP| d TBP{ d T@P{ d S~P| d S}P? m TEQG
d TFQE d TFQA d TEP? m TBQJ d TCQI d TDQH d TEQE d TEQA d TDP} d TCP|
d TBP{ m SxPt d T@Pt m SyQJ d S{QI m SzQJ d S{QH m S{Pu d SyPt m S{Pv
d SzPt m S}Pv d S~Pt m S}Pu d S?Pt m SxPt m TVQJ d TSQI d TRQG d TQQD
d TQQB d TRP? d TSP| d TVP{ d TXP{ d T[P| d T]P? d T^QB d T^QD d T]QG
d T[QI d TXQJ d TVQJ m TSQG d TRQE d TRQA d TSP? m T\P? d T]QA d T]QE
d T\QG m TVQJ d TTQI d TSQH d TSQE d TSQA d TSP} d TTP| d TVP{ m TXP{
d TZP| d T[P} d T\QA d T\QE d T[QH d TZQI d TXQJ m TPPt m TrQH d TsQJ
d TsQF d TrQH d TqQI d ToQJ d TjQJ d ThQI d TgQH d TgQF d ThQD d TjQC
d TpQB d TrQA d TsP} m ThQI d TgQF m ThQE d TjQD d TpQC d TrQB m TsQA
d TrP| m TgQH d ThQF d TjQE d TpQD d TrQC d TsQA d TsP} d TrP| d TpP{
d TlP{ d TiP| d ThP} d TgQ@ d TgP{ d ThP} m TfPt m T|QJ d T|QA d T}P}
d T~P| d U@P{ d UCP{ d UDP| d UEP} d UFQ@ m T}QI d T}Q@ d T~P} m TzQJ
d T~QJ d T~Q@ d T?P| d U@P{ m UFQJ d UFP{ d UJP{ m UGQI d UGP| m UCQJ
d UHQJ d UHP{ m T{QJ d T|QI m T|QJ d T|QH m UHP} d UIP{ m UHP| d UJP{
m TzPt m UVQJ d UVP{ m UXQI d UXP| m USQJ d UYQJ d UYP{ m U`QH d U`QI
d U_QI d U_QG d UaQG d UaQI d U`QJ d U^QJ d U\QI d UZQG d UYQD m USP{
d U\P{ m UTQJ d UVQI m UUQJ d UVQH m UVP| d UTP{ m UVP} d UUP{ m UYP}
d UZP{ m UYP| d U[P{ m USPt m UjQD d UuQD d UuQF d UtQH d UsQI d UpQJ
d UnQJ d UkQI d UiQG d UhQD d UhQB d UiP? d UkP| d UnP{ d UpP{ d UsP|
d UuP? m UtQE d UtQF d UsQH m UjQG d UiQE d UiQA d UjP? m UsQD d UsQG
d UrQI d UpQJ m UnQJ d UlQI d UkQH d UjQE d UjQA d UkP} d UlP| d UnP{
m UgPt m VIQH d VJQJ d VJQF d VIQH d VHQI d VEQJ d VAQJ d U?QI d U~QH
d U~QF d U?QD d VAQC d VFQB d VIQA d VJP} m U?QI d U~QF m U?QE d VAQD
d VFQC d VIQB m VJQA d VIP| m U~QH d U?QF d VAQE d VFQD d VIQC d VJQA
d VJP} d VIP| d VFP{ d VBP{ d V@P| d U?P} d U~Q@ d U~P{ d U?P} m U}Pt
m E`Y\ d FBYR m E`YU d EdYV d EgYV d EjYU d ElYT d ElYS d EhYR d EeYR
d EbYS d E`YT d E`YU d EbYV d EdYX d EdYY d EbY[ d E`Y\ m EwYZ d ExYY
d E{YX d E?YX d FBYY d FBY[ d F@Y\ d E}Y\ d EzY\ d EwY[ d EwYZ m FMYR
m EUYb m FMYb m ElYw d EmYu d EpYs d EuYs d ExYs d E}Ys d F@Yu d FBYw
d FBYx d F@Yz d E}Y{ d ExY| d EuY| d EpY{ d EmYz d ElYx d ElYw m EpYt
d EtYs d EzYs d E}Yt m E}Yz d EzY{ d EtY{ d EpYz m ElYw d EmYu d EoYu
d EtYt d EzYt d E?Yu d F@Yu d FBYw m FBYx d F@Yy d E?Yz d EzYz d EtYz
d EoYz d EmYy d ElYx m FMYr m EdZK d EbZK d EbZJ d EeZJ d EeZL d EbZL
d E`ZK d E`ZH d EbZG d EdZF d EhZE d FBZE m EdZG d EhZF d F@ZF m E`ZH
d EbZG d EeZG d FBZG m ElZB d ElZJ m FBZB d FBZI m F@ZE d FBZC m E?ZE
d FBZD m E?ZG d FBZG m F@ZG d FBZH m FMZB m EUZR m FMZR m ElZe d FMZe
m EmZe d FKZe m ElZc d ElZf d FMZf m EpZf d EmZf d ElZh d ElZi d EmZk
d EpZl d EuZm d ExZm d E}Zl d F@Zk d FBZi d FBZh d F@Zf d E}Zf m EpZk
d EtZl d EzZl d E}Zk m ElZi d EmZj d EoZk d EtZk d EzZk d E?Zk d F@Zj
d FBZi m FMZc d FMZh m ElZc d EmZe m ElZd d EoZe m FKZe d FMZc m FJZe
d FMZd m FJZf d FMZf m FKZf d FMZg m FMZc m E`Zv d EdZv d EdZx d E`Zx
d E`Zv m E`Zw d EdZw m EbZv d EbZx m ElZv d FBZv m EmZw d F@Zw m ElZs
d ElZx d FBZx m FBZs d FBZ{ m ElZt d EmZv m ElZu d EoZv m F@Zv d FBZt
m E?Zv d FBZu m E?Zx d FBZy m F@Zx d FBZz m FMZs m El[D d FB[K m El[E
d FB[L m El[F d FB[L m Em[L d F@[E m El[C d El[H m El[J d El[N m FB[C
d FB[G m FB[I d FB[N m El[D d Em[E m El[G d Em[F m El[J d Em[L m El[M
d Em[L m F@[E d FB[D m F@[E d FB[F m F@[K d FB[J m F@[L d FB[M m FM[C
m Eu[U d Eu[] d Er[] d Eo[\ d Em[[ d El[Y d El[X d Em[V d Ep[U d Eu[T
d Ex[T d E}[U d F@[V d FB[X d FB[Y d F@[[ d E}[] m Et[\ d Er[\ d Eo[[
m Ep[U d Et[U d Ez[U 
stroke
m Ez[U d E}[U m Eu[[ d Ep[[ d Em[[ d El[Y m El[X d Em[W d Eo[V d Et[U
d Ez[U d E?[V d F@[W d FB[X m FM[S m E`[f d FB[f m Eb[g d F@[g m E`[d
d E`[h d FB[h m FB[d d FB[k m E`[e d Eb[f m E`[f d Ed[f m F@[f d FB[e
m E?[f d FB[f m E?[h d FB[i m F@[h d FB[j m FM[d m Eo[| d El[} d Er[}
d Eo[| d Em[{ d El[z d El[w d Em[u d Eo[u d Er[u d Eu[u d Ew[w d Ex[z
d Ez[| d E?[} m Em[u d Er[u m Et[u d Eu[w d Ew[z d Ex[| m Ez[} d F@[|
m Eo[u d Er[u d Et[w d Eu[z d Ew[| d Ez[} d E?[} d F@[| d FB[z d FB[w
d F@[v d E?[u d E{[u d FB[u d E?[u m FM[t m HxRg d HxRg d KaRg d KaRg
d KaRg d NRRg d NRRg d NRRh d QCRh d QCRg d QCRk d SsRk d SsRg d SsRt
d VdRt d VdRg d VdSY d YUSY d YURg d YUT? d \FT? d \FRg d \FYQ d ^}YQ
d ^}Rg m HxRo d HzRo m IARo d ICRo m IKRo d IMRo m ITRo d IVRo m I^Ro
d I`Ro m IgRo d IiRo m IqRo d IsRo m IzRo d I|Ro m JDRo d JFRo m JMRo
d JORo m JWRo d JYRo m J`Ro d JbRo m JjRo d JlRo m JsRo d JuRo m J}Ro
d J?Ro m KFRo d KHRo m KPRo d KRRo m KYRo d K[Ro m KaRo m KaRp d KaRr
m KaRv m KbRv d KdRv m KlRv d KnRv m KuRv d KwRv m K?Rv d LARv m LHRv
d LJRv m LRRv d LTRv m L[Rv d L]Rv m LeRv d LgRv m LoRv d LpRv m LxRv
d LzRv m MBRv d MCRv m MKRv d MMRv m MURv d MWRv m M^Rv d M`Rv m MhRv
d MjRv m MqRv d MsRv m M{Rv d M}Rv m NDRv d NFRv m NNRv d NPRv m NRRv
m NRRz d NRR{ m NRS@ d NRSA m NRSB m NXSB d NZSB m NbSB d NdSB m NkSB
d NmSB m NuSB d NwSB m N~SB d O@SB m OHSB d OJSB m OQSB d OSSB m O[SB
d O]SB m OdSB d OfSB m OnSB d OpSB m OwSB d OySB m PASB d PCSB m PJSB
d PLSB m PTSB d PVSB m P^SB d P_SB m PgSB d PiSB m PqSB d PrSB m PzSB
d P|SB m QCSB m QCSC d QCSD m QCSI d QCSJ m QCSO d QCSQ m QCSV d QCSW
m QCSX m QJSX d QKSX m QSSX d QUSX m Q]SX d Q^SX m QfSX d QhSX m QpSX
d QrSX m QySX d Q{SX m RCSX d RESX m RLSX d RNSX m RVSX d RXSX m R_SX
d RaSX m RiSX d RkSX m RrSX d RtSX m R|SX d R~SX m SESX d SGSX m SOSX
d SQSX m SXSX d SZSX m SbSX d SdSX m SkSX d SmSX m SsSX m SsSY d SsSZ
m SsS_ d SsS` m SsSe d SsSg m SsSl d SsSm m SsSr d SsSs m SsSx d SsSz
m SsS~ m SuS~ d SwS~ m S~S~ d T@S~ m THS~ d TJS~ m TRS~ d TSS~ m T[S~
d T]S~ m TeS~ d TfS~ m TnS~ d TpS~ m TxS~ d TyS~ m UAS~ d UCS~ m UKS~
d UMS~ m UTS~ d UVS~ m U^S~ d U`S~ m UgS~ d UiS~ m UqS~ d UsS~ m UzS~
d U|S~ m VDS~ d VFS~ m VMS~ d VOS~ m VWS~ d VYS~ m V`S~ d VbS~ m VdS~
m VdTA d VdTC m VdTH d VdTI m VdTN d VdTO m VdTU d VdTV m VdT[ d VdT\
m VdTa d VdTb m VdTh d VdTi m VdTn d VdTo m VdTt d VdTv m VdT{ d VdT|
m VdUA d VdUA d VeUA m VmUA d VoUA m VvUA d VxUA m W@UA d WBUA m WIUA
d WKUA m WSUA d WUUA m W\UA d W^UA m WfUA d WhUA m WpUA d WqUA m WyUA
d W{UA m XCUA d XDUA m XLUA d XNUA m XVUA d XXUA m X_UA d XaUA m XiUA
d XkUA m XrUA d XtUA m X|UA d X~UA m YEUA d YGUA m YOUA d YQUA m YUUA
m YUUD d YUUE m YUUJ d YUUK m YUUP d YUUR m YUUW d YUUX m YUU] d YUU^
m YUUc d YUUe m YUUj d YUUk m YUUp d YUUq m YUUw d YUUx m YUU} d YUU~
m YUVC d YUVD m YUVJ d YUVK m YUVP d YUVQ m YUVV d YUVX m YUV] d YUV^
m YUVc d YUVd m YUVi d YUVk m YUVp d YUVq m YUVv d YUVw m YUV{ m YWV{
d YYV{ m YaV{ d YcV{ m YjV{ d YlV{ m YtV{ d YvV{ m Y}V{ d Y?V{ m ZGV{
d ZIV{ m ZPV{ d ZRV{ m ZZV{ d Z\V{ m ZcV{ d ZeV{ m ZmV{ d ZoV{ m ZvV{
d ZxV{ m [@V{ d [BV{ m [IV{ d [KV{ m [SV{ d [UV{ m [\V{ d [^V{ m [fV{
d [hV{ m [oV{ d [qV{ m [yV{ d [{V{ m \CV{ d \DV{ m \FV{ m \FV? d \FW@
m \FWE d \FWG m \FWL d \FWM m \FWR d \FWS m \FWY d \FWZ m \FW_ d \FW`
m \FWe d \FWg m \FWl d \FWm m \FWr d \FWs m \FWx d \FWz m \FW? d \FX@
m \FXE d \FXF m \FXK d \FXM m \FXR d \FXS m \FXX d \FXY m \FX^ d \FX`
m \FXe d \FXf m \FXk d \FXl m \FXq d \FXs m \FXx d \FXy m \FX~ d \FX?
m \FYD d \FYF m \FYK d \FYL m \FYQ d \FYR m \FYW d \FYY m \FY^ d \FY_
m \FYd d \FYe m \FYk d \FYl m \FYq d \FYr m \FYw d \FYy m \FY~ d \FY?
m \FZD d \FZE m \FZJ d \FZL m \FZQ d \FZR m \FZW d \FZX m \FZ] d \FZ_
m \FZd d \GZd m \OZd d \QZd m \YZd d \ZZd m \bZd d \dZd m \lZd d \nZd
m \uZd d \wZd m \?Zd d ]AZd m ]HZd d ]JZd m ]RZd d ]TZd m ][Zd d ]]Zd
m ]eZd d ]gZd m ]nZd d ]pZd m ]xZd d ]zZd m ^AZd d ^CZd m ^KZd d ^MZd
m ^TZd d ^VZd m ^^Zd d ^`Zd m ^gZd d ^iZd m ^qZd d ^sZd m ^zZd d ^|Zd
m ^}Zd 
stroke
grestore showpage
