\relax 
\@writefile{toc}{\contentsline {section}{\numberline {23}Photometric Uniformity}{22}}
\newlabel{dq}{{24}{22}}
\@writefile{toc}{\contentsline {section}{\numberline {24}Data Quality Characterization}{22}}
\newlabel{mdp}{{25}{23}}
\@writefile{toc}{\contentsline {section}{\numberline {25}Data Products}{23}}
\@setckpt{old}{
\setcounter{page}{25}
\setcounter{equation}{0}
\setcounter{enumi}{0}
\setcounter{enumii}{0}
\setcounter{enumiii}{0}
\setcounter{enumiv}{0}
\setcounter{footnote}{0}
\setcounter{mpfootnote}{0}
\setcounter{part}{0}
\setcounter{section}{25}
\setcounter{subsection}{0}
\setcounter{subsubsection}{0}
\setcounter{paragraph}{0}
\setcounter{subparagraph}{0}
\setcounter{figure}{0}
\setcounter{table}{0}
\setcounter{NAT@ctr}{0}
}
