\relax 
\citation{PL001}
\citation{PL001}
\@writefile{toc}{\contentsline {section}{\numberline {1}Introduction}{1}}
\@writefile{toc}{\contentsline {section}{\numberline {2}The Element Hierarchy}{2}}
\@writefile{toc}{\contentsline {section}{\numberline {3}System PDL File}{2}}
\@writefile{toc}{\contentsline {section}{\numberline {4}Pipeline PDL Files}{2}}
\@writefile{toc}{\contentsline {section}{\numberline {5}Macros}{2}}
\@writefile{toc}{\contentsline {section}{\numberline {6}Variable Substitution}{3}}
\@writefile{toc}{\contentsline {section}{\numberline {7}Exit Codes}{3}}
\bibdata{PLSeries}
\bibcite{PL001}{{1}{}{{}}{{}}}
\bibstyle{abbrv}
\@writefile{toc}{\contentsline {section}{\numberline {8}Templates}{4}}
\@writefile{toc}{\contentsline {section}{References}{4}}
\@writefile{toc}{\contentsline {section}{Appendix A: PDL Technical Specification}{5}}
\@writefile{toc}{\contentsline {subsection}{PDL Elements}{5}}
\@writefile{toc}{\contentsline {subsection}{PDL Attributes}{9}}
\providecommand\NAT@force@numbers{}\NAT@force@numbers
\@writefile{toc}{\contentsline {section}{Appendix B: Example}{13}}
\@writefile{lof}{\contentsline {figure}{\numberline {1}{\ignorespaces Example pipeline PDL file. }}{13}}
\newlabel{fig:plsrc.xml}{{1}{13}}
\@writefile{lof}{\contentsline {figure}{\numberline {2}{\ignorespaces Example system PDL file. }}{14}}
\newlabel{fig:sys.xml}{{2}{14}}
\@writefile{lof}{\contentsline {figure}{\numberline {3}{\ignorespaces Compiled PDL from the source files in figures 1\hbox {} and 2\hbox {}. }}{15}}
\newlabel{fig:compiled.xml}{{3}{15}}
