\contentsline {figure}{\numberline {1}{\ignorespaces Example pipeline PDL file. }}{13}
\contentsline {figure}{\numberline {2}{\ignorespaces Example system PDL file. }}{14}
\contentsline {figure}{\numberline {3}{\ignorespaces Compiled PDL from the source files in figures 1\hbox {} and 2\hbox {}. }}{15}
