\relax 
\bibcite{Cline}{{1}{}{{}}{{}}}
\bibcite{Monet}{{2}{}{{}}{{}}}
\bibcite{Smith}{{3}{}{{}}{{}}}
\bibcite{Swaters}{{4}{}{{}}{{}}}
\@setckpt{references}{
\setcounter{page}{26}
\setcounter{equation}{0}
\setcounter{enumi}{0}
\setcounter{enumii}{0}
\setcounter{enumiii}{0}
\setcounter{enumiv}{0}
\setcounter{footnote}{0}
\setcounter{mpfootnote}{0}
\setcounter{part}{0}
\setcounter{section}{25}
\setcounter{subsection}{0}
\setcounter{subsubsection}{0}
\setcounter{paragraph}{0}
\setcounter{subparagraph}{0}
\setcounter{figure}{0}
\setcounter{table}{0}
\setcounter{NAT@ctr}{4}
}
