\relax 
\newlabel{saturation}{{8}{10}}
\@writefile{toc}{\contentsline {section}{\numberline {8}Saturation}{10}}
\newlabel{calsat}{{8.1}{10}}
\@writefile{toc}{\contentsline {subsection}{\numberline {8.1}Saturation in Bias, Dome Flat, and Twilight Flat Calibrations}{10}}
\newlabel{objsat}{{8.2}{10}}
\@writefile{toc}{\contentsline {subsection}{\numberline {8.2}Saturation in Science Exposures}{10}}
\newlabel{bleed}{{9}{10}}
\@writefile{toc}{\contentsline {section}{\numberline {9}Bleed Trails}{10}}
\@setckpt{satbleed}{
\setcounter{page}{11}
\setcounter{equation}{0}
\setcounter{enumi}{0}
\setcounter{enumii}{0}
\setcounter{enumiii}{0}
\setcounter{enumiv}{0}
\setcounter{footnote}{0}
\setcounter{mpfootnote}{0}
\setcounter{part}{0}
\setcounter{section}{9}
\setcounter{subsection}{0}
\setcounter{subsubsection}{0}
\setcounter{paragraph}{0}
\setcounter{subparagraph}{0}
\setcounter{figure}{0}
\setcounter{table}{0}
\setcounter{NAT@ctr}{0}
}
