digraph ODI_OGCE {
/*label="ODI PIPELINE DATA FLOW DESIGN - OGCE"*/
labelloc="top"
rankdir=LR
node[shape="octagon"]

{ rank=same; 11; 12; 13; 14; 15 }
{ rank=same; 21; 22; 23; 24; 25 }
{ rank=same; 31; 32; 33; 34; 35 }
{ rank=same; 41; 42; 43; 44; 45 }
{ rank=same; 51; 52; 53; 54; 55 }
{ rank=same; 61; 62 }

11 [label="top:1"]
21 [label="calZ:1"]
31 [label="seq"]
41 [label="calZ:2"]
51 [label="dps"]
61 [label="calZ:3"]

62 [label="top:2"]
52 [label="calF:1"]
42 [label="seq"]
32 [label="calF:2"]
22 [label="dps"]
12 [label="calF:3"]

13 [label="top:3"]
23 [label="ftr:1"]
33 [label="exp"]
43 [label="ftr:2"]
53 [label="sky"]
54 [label="ftr:3"]
44 [label="expG"]
34 [label="ftr:4"]
24 [label="stk:1"]
14 [label="esk"]
15 [label="stk:2"]
25 [label="ftr:5"]
35 [label="dps"]
45 [label="ftr:6"]
55 [label="top:4"]

11 -> 21 [dir=forward arrowhead="crow"]
21 -> 31 [dir=forward arrowhead="crow"]
31 -> 41 [dir=forward arrowhead="vee"]
41 -> 51 [dir=forward arrowhead="crow"]
51 -> 61 [dir=forward arrowhead="vee"]

61 -> 62 [dir=forward arrowhead="vee"]

12 -> 22 [dir=back    arrowtail="vee"]
22 -> 32 [dir=back    arrowtail="crow"]
32 -> 42 [dir=back    arrowtail="vee"]
42 -> 52 [dir=back    arrowtail="crow"]
52 -> 62 [dir=back    arrowtail="crow"]

12 -> 13 [dir=forward arrowhead="vee"]

13 -> 23 [dir=forward arrowhead="crow"]
23 -> 33 [dir=forward arrowhead="crow"]
33 -> 43 [dir=forward arrowhead="vee"]
43 -> 53 [dir=forward arrowhead="crow"]

53 -> 54 [dir=forward arrowhead="vee"]

14 -> 24 [dir=back    arrowtail="crow"]
24 -> 34 [dir=back    arrowtail="crow"]
34 -> 44 [dir=back    arrowtail="vee"]
44 -> 54 [dir=back    arrowtail="crow"]

14 -> 15 [dir=forward arrowhead="vee"]

15 -> 25 [dir=forward arrowhead="vee"]
25 -> 35 [dir=forward arrowhead="crow"]
35 -> 45 [dir=forward arrowhead="vee"]
45 -> 55 [dir=forward arrowhead="vee"]

}
