digraph ODI_NHPPS3 {
/*label="ODI PIPELINE DATA FLOW DESIGN - NHPPS"*/
labelloc="top"

rankdir=LR
nodesep=0.1
edge [dir=both, arrowhead="crow", arrowtail="vee"]

top [label="top"]

subgraph calgroupZ {
    calZ [label="calZ"]
    seqZ [label="seq", shape=box]
    dpsZ [label="dps"]
    calZ -> seqZ:w
    calZ -> dpsZ
}

subgraph calgroupF {
    calF [label="calF"]
    seqF [label="seq", shape=box]
    dpsF [label="dps"]
    calF -> seqF:w
    calF -> dpsF
}

subgraph ftrgroup  {
    ftr [label="ftr"]
    exp [label="exp", shape=box]
    sky [label="sky", shape=box]
    expG [label="expG", shape=box]
    stk [label="stk", shape=box]
    esk [label="esk", shape=box]
    dps [label="dps"]
    ftr -> exp:w
    ftr -> sky:w
    ftr -> expG:w
    ftr:e -> stk:w [weight=2]
    stk:e -> esk:w
    ftr -> dps 
}

top -> calZ
top -> calF
top -> ftr [minlen=3]

/*
{rank=same; calZ; calF; ftr}
{rank=same; seqZ; dpsZ; seqF; dpsF; exp; sky; expG; osk; dps}
*/

}
